ts,p0,p1,p2,p3
0.6827330,0.0026807,122.5022054,92.9024972,78.9856562
0.8317470,0.0105301,122.6889177,92.9671700,79.0896540
1.2873290,0.0193501,122.7758606,92.9699321,79.1229536
1.4578020,0.0240585,122.7385359,92.8441086,79.0187141
1.5008070,0.0241566,122.5853175,92.6260308,78.8180761
1.5528050,0.0213593,122.5940511,92.6414416,78.8553823
1.7108040,0.0176620,122.5671495,92.6426600,78.8652345
1.7458060,0.0142032,122.4765577,92.5619460,78.8048771
1.7858020,0.0112492,122.4782013,92.5504176,78.8115005
1.9423460,0.0086672,122.4388249,92.5470787,78.8189099
1.9820450,0.0062419,122.4496155,92.5793082,78.8576706
2.0200480,0.0038703,122.3921640,92.5653845,78.8645454
2.0680460,0.0016103,122.4788317,92.6396237,78.9753743
2.2530510,-0.0004241,122.4440430,92.5929380,78.9326653
2.2880450,-0.0021677,122.4284094,92.5724978,78.9219788
2.3330470,-0.0035998,122.4173951,92.5646566,78.9188636
2.3700510,-0.0047450,122.2840845,92.3906046,78.7058611
2.5460480,-0.0057032,122.2415329,92.3531742,78.6654060
2.5850500,-0.0065940,122.2035856,92.3109155,78.6156321
2.6250460,-0.0074745,122.1951835,92.3039761,78.5956033
2.6690490,-0.0083398,122.2900624,92.3903264,78.6623858
2.8250430,-0.0091340,122.4176033,92.5175952,78.7902762
2.8590460,-0.0097729,122.4235569,92.5569506,78.8274982
2.8990450,-0.0102057,122.4186814,92.5599592,78.8386567
2.9370460,-0.0104094,122.4734609,92.6075962,78.8921895
3.0890480,-0.0103362,122.5112832,92.6211901,78.9414495
3.1240430,-0.0099290,122.4271978,92.4859436,78.8116298
3.1660450,-0.0091934,122.3381313,92.3577810,78.6701713
3.2020450,-0.0082726,122.2144317,92.2447866,78.4841809
3.3590430,-0.0073911,122.1540764,92.1418262,78.3792442
3.3915800,-0.0066655,122.0510066,91.9557906,78.2012322
3.4355850,-0.0060362,121.9383695,91.7372799,78.0211281
3.4745820,-0.0053538,121.8970354,91.6461090,77.9403906
3.6355900,-0.0044595,121.7878866,91.4793466,77.7732558
3.6715830,-0.0032709,121.6696722,91.3105739,77.5887124
3.7085810,-0.0018952,121.7711093,91.3165769,77.5727122
3.7435810,-0.0005588,122.0461622,91.3712048,77.6059648
3.9007860,0.0005956,122.0400626,91.3216785,77.5967911
3.9387850,0.0015585,121.7258888,91.1631199,77.5356142
3.9748250,0.0023753,121.5189048,90.9893325,77.3957719
4.0128280,0.0030752,121.4771363,90.9969774,77.4301941
4.1728250,0.0036057,121.4553727,91.0096583,77.4593720
4.2098230,0.0038417,121.4267433,91.0150028,77.4977629
4.2468270,0.0037445,121.3956790,90.9773517,77.5046333
4.4218280,0.0034166,121.3279345,90.9264718,77.4620222
4.4598230,0.0029705,121.2322056,90.8594876,77.3924346
4.5008210,0.0026582,121.0623037,90.7450570,77.5971951
4.5408240,0.0030729,120.9290384,90.6559064,77.8345329
4.7198250,0.0048190,120.7620763,90.5408998,78.0406640
4.7598230,0.0080445,120.8512743,90.5558534,78.1408633
4.7978350,0.0124200,120.8926392,90.5185129,78.2136797
4.8348280,0.0170360,121.0455526,90.5471507,77.9952226
5.0058270,0.0204339,121.0618688,90.5114863,78.0089276
5.0598260,0.0214614,121.1391658,90.5993096,78.0878110
5.1078260,0.0198511,121.1711522,90.6926946,78.1597526
5.1488300,0.0162932,121.0672599,90.6458434,78.4398302
5.3278240,0.0121916,121.0380819,90.6696858,78.4372460
5.3788220,0.0086143,120.9198041,90.6722613,78.3508362
5.4198280,0.0055323,120.8669522,90.7908143,78.3102686
5.5923580,0.0024730,120.9147469,90.8437362,78.4010386
5.6333580,-0.0007976,120.8928868,90.7576092,78.3475663
5.6763610,-0.0042627,120.8768563,90.6514482,78.3228640
5.7183600,-0.0074481,120.9164713,90.6695295,78.3606504
5.9013640,-0.0095503,120.9243621,90.6241582,78.3460756
5.9383700,-0.0100825,120.8431452,90.5384102,78.2826538
5.9843640,-0.0093475,120.8361207,90.5808424,78.3108645
6.0283650,-0.0082403,120.8895847,90.6826310,78.3882090
6.2123670,-0.0075656,120.9802030,90.7879044,78.5074853
6.2503590,-0.0076499,120.9999225,90.8867406,78.5740144
6.2983680,-0.0084826,121.0251335,91.0064811,78.6698737
6.3353600,-0.0099448,121.1339381,91.0382524,78.5109657
6.5183610,-0.0118671,121.2475578,91.0459141,78.3810158
6.5593610,-0.0140129,121.2262953,91.0300476,78.3342090
6.6063610,-0.0160766,121.3437750,91.1656127,78.4519986
6.6493570,-0.0177050,121.3264447,91.1441498,78.4474347
6.8162710,-0.0185513,121.0003422,91.0127110,78.3658148
6.8552670,-0.0184536,120.6114670,90.8625125,78.2281719
6.9012890,-0.0175698,120.4943141,90.8429975,78.2292569
6.9452830,-0.0162097,120.4677671,90.8520870,78.2634425
7.1322700,-0.0146603,120.4144215,90.8536718,78.2567263
7.1702680,-0.0131593,120.2879250,90.7489297,78.1332195
7.2152740,-0.0117840,120.2193212,90.7113944,78.0675288
7.2542660,-0.0104791,120.1996185,90.7466412,78.0721531
7.4332680,-0.0092522,120.1733026,90.7582771,78.0719827
7.4742830,-0.0081709,120.1844672,90.7918629,78.0790961
7.5182850,-0.0072172,120.1706659,90.7147857,77.9894581
7.5592800,-0.0062595,120.1474231,90.6453334,77.9033837
7.7261910,-0.0052014,120.1103508,90.6700652,77.8718642
7.7702090,-0.0041453,120.0746032,90.7042528,77.8274280
7.8201880,-0.0032639,120.0425514,90.6755166,77.8048482
7.8571900,-0.0025841,120.0461273,90.6747055,77.8019820
8.0397060,-0.0020433,120.0542998,90.6754498,77.8053735
8.0757040,-0.0014971,119.9282539,90.4799859,77.6266800
8.1187070,-0.0006429,119.8113939,90.2905276,77.4404818
8.1577040,0.0007136,119.6622207,90.1134410,77.2226026
8.3417040,0.0024253,119.5610757,89.9516972,77.0671899
8.3777050,0.0042040,119.5577035,89.9517528,77.0721972
8.4247050,0.0057744,119.5204973,89.9288388,77.0344853
8.4657030,0.0068999,119.4756512,89.8782489,76.9850058
8.6597070,0.0075349,119.4308119,89.8220171,76.9418691
8.7037080,0.0078027,119.4212491,89.8282373,76.9272820
8.7577080,0.0077933,119.4703840,89.8762295,76.9657460
8.8077040,0.0075590,119.5442262,89.9651029,77.0357761
8.9827030,0.0071647,119.5090198,89.9454882,77.0100087
9.0267050,0.0066341,119.4809714,89.9336884,76.9807914
9.0797120,0.0059471,119.4893596,89.9402836,76.9374683
9.1187080,0.0051083,119.5049291,89.9517409,76.9299708
9.2927040,0.0042093,119.5435701,89.9769769,76.9685864
9.3397050,0.0033806,119.5458108,89.9901373,76.9586106
9.3897090,0.0026945,119.5372934,89.9739240,76.9403159
9.4337070,0.0022068,119.6841777,90.0006801,76.9292019
9.6037080,0.0019391,119.8800509,90.2078525,77.0758460
9.6467090,0.0017643,120.0949460,90.4262556,77.2788779
9.6897030,0.0015255,120.2385850,90.5835852,77.4255282
9.7337080,0.0012084,120.3375234,90.6809272,77.5501743
9.9167030,0.0009665,120.3923115,90.6638597,77.6237654
9.9517030,0.0010394,120.4331962,90.6851393,77.6446852
9.9897050,0.0014864,120.4601365,90.8249479,77.7396578
10.0257070,0.0019864,120.3977279,90.9251961,77.7483012
10.1987040,0.0021080,120.4607315,90.9591282,77.7806695
10.2287040,0.0016124,120.5020277,91.0471402,77.8460312
10.2677080,0.0004371,120.6153712,91.2281204,78.0222320
10.3047060,-0.0011917,120.7062048,91.3102762,78.1022800
10.4677080,-0.0027204,120.7497258,91.3620573,78.1242239
10.5077060,-0.0037012,120.7305530,91.3837128,78.1158625
10.5437030,-0.0041110,120.7333712,91.4107274,78.1382272
10.5757050,-0.0041168,120.7723703,91.4296996,78.1571786
10.7487120,-0.0038719,120.8283506,91.4947963,78.2000742
10.7847050,-0.0038513,120.4736034,91.4816722,77.8321914
10.8257030,-0.0047308,120.5438644,91.5514603,77.8834222
10.8637040,-0.0065511,120.6118145,91.6002828,77.9291572
11.0227030,-0.0087524,120.5970632,91.5870428,77.9104168
11.0547030,-0.0108002,120.5789857,91.5648927,77.8777873
11.0947030,-0.0120681,120.5703352,91.5583770,77.8598836
11.1267040,-0.0118689,120.5560034,91.5395740,77.8419939
11.2867070,-0.0101842,120.5390733,91.5173775,77.8286751
11.3197070,-0.0076408,120.5666497,91.5152844,77.8396458
11.3577070,-0.0048749,120.5140490,91.4953896,77.8390826
11.3997060,-0.0022811,120.2571888,91.3791158,77.8010474
11.5627060,-0.0000061,120.1743715,91.3512479,77.8170434
11.5987160,0.0019298,120.1467809,91.3481914,77.8101956
11.6387070,0.0035201,120.1568887,91.3520672,77.8278951
11.6762200,0.0048252,120.2463861,91.3918392,77.9220233
11.8372250,0.0060275,120.2770253,91.3672213,77.9516397
11.8742200,0.0072785,120.3421761,91.4347415,78.0400641
11.9102270,0.0085581,120.3672877,91.4705842,78.0699266
11.9482210,0.0097283,120.3958770,91.5165508,78.1174813
12.1122220,0.0106059,120.4232848,91.5480756,78.1618926
12.1512310,0.0109823,120.4584607,91.6014571,78.1992942
12.2272210,0.0107170,120.4449775,91.6153058,78.2034014
12.2732270,0.0098575,120.3913058,91.5919955,78.1596218
12.4442240,0.0086284,120.5355358,91.6228846,78.1532439
12.4792220,0.0072938,120.6189459,91.6415009,78.1359722
12.5212750,0.0060583,120.6679202,91.6438729,78.1486806
12.5572240,0.0050754,120.6905205,91.6538678,78.1666382
12.7112200,0.0044362,120.6757318,91.6309229,78.1566295
12.7482220,0.0041358,120.7579623,91.6987006,78.2441373
12.7882220,0.0041074,120.7879083,91.7264009,78.3221236
12.8252220,0.0042921,120.8773874,91.8192983,78.4778284
13.0042270,0.0046580,120.9538399,91.9048705,78.6368145
13.0502210,0.0052392,121.0102193,91.8565925,78.6697498
13.0782210,0.0061691,121.1380699,91.7574071,78.6238110
13.1192260,0.0075150,121.3942824,91.8053938,78.6318653
13.2762500,0.0091494,121.5443519,91.6681560,78.4938666
13.3162540,0.0108216,121.9775549,91.9459986,78.7138186
13.3512220,0.0122189,121.9775411,91.8575890,78.6733118
13.3942220,0.0130520,121.8926983,91.7696554,78.6447065
13.5592260,0.0131514,121.3332897,91.3569026,78.2827505
13.5952510,0.0124624,120.5958882,90.7970713,77.7936627
13.6342200,0.0109736,120.0030625,90.5189765,77.5327272
13.7962250,0.0086919,119.4126725,90.1236469,77.1634529
13.8362270,0.0057012,119.1786877,90.0261745,77.1034984
13.8782200,0.0023436,119.2615978,90.1113928,77.3072288
13.9122220,-0.0007520,119.5715295,90.3751809,77.6394757
14.0762240,-0.0029594,119.8842209,90.6314597,77.9391145
14.1182230,-0.0038515,120.4188845,91.0030822,78.3689087
14.1552230,-0.0033381,120.8540250,91.3706779,78.7516752
14.1942200,-0.0019112,121.2578122,91.7476711,79.0385510
14.3452250,-0.0005307,121.4474140,91.8195221,78.9943583
14.3932250,0.0001027,121.6046728,91.7391119,78.9364840
14.4302230,-0.0000234,121.6731576,91.6425978,78.8706212
14.4712280,-0.0005804,121.7335537,91.6040653,78.8356322
14.6362290,-0.0010808,121.7706368,91.4079112,78.7136967
14.6742230,-0.0015084,122.2647870,91.6083558,77.9724902
14.7102230,-0.0026918,122.2580469,91.4268763,77.8498506
14.7552250,-0.0049732,122.2210321,91.2099242,77.7122893
14.9302250,-0.0077794,122.2025540,91.1432097,77.6471650
14.9722220,-0.0105703,122.2299711,91.1469928,77.6648205
15.0082270,-0.0125803,122.4504318,91.2394716,77.7850862
15.0452190,-0.0126407,122.7830435,91.3785068,77.9730484
15.2282240,-0.0105688,122.9124525,91.3869061,78.0215505
15.2622220,-0.0072710,123.0240266,91.3578145,78.0860246
15.3012400,-0.0035772,123.0400291,91.2749624,78.0353147
15.3432210,-0.0000465,123.0342834,91.2760822,78.0273025
15.4912240,0.0028091,123.1154332,91.3580640,78.0836380
15.5382220,0.0045711,123.2419326,91.4948634,78.1746300
15.5732260,0.0050654,123.4027621,91.5948904,78.2653885
15.7357610,0.0043948,123.4325405,91.6208009,78.2773233
15.7707620,0.0028943,123.4243738,91.6284604,78.2588984
15.8087620,0.0010312,123.3896188,91.5692794,78.1772610
15.8447620,-0.0007445,123.3812518,91.5953803,78.2110316
16.0037650,-0.0021441,123.5214734,91.7439723,78.3807032
16.0447600,-0.0031137,123.5808381,91.8609292,78.5032049
16.0777610,-0.0037380,123.5781432,91.9069575,78.5673354
16.1117620,-0.0041932,123.5567043,92.1034092,78.7117624
16.2667730,-0.0047772,123.4658420,92.1375570,78.7046417
16.3117630,-0.0057920,123.4222316,92.3066723,78.8178044
16.3467600,-0.0074240,123.4233304,92.5118079,78.9747349
16.5287640,-0.0097248,123.4483431,92.7375315,79.1081872
16.5687650,-0.0124886,123.5485768,92.8801200,79.2358359
16.6107610,-0.0152277,123.6178540,93.0772374,79.3584185
16.6457610,-0.0175031,123.7614328,93.3643236,79.6020541
16.8047650,-0.0191169,123.8214837,93.5891156,79.7608754
16.8427620,-0.0200478,123.8365554,93.7625631,79.8654830
16.8847730,-0.0204285,123.8796598,93.9513731,80.0077560
16.9267630,-0.0204525,123.9442837,94.0693697,80.0830716
17.0907620,-0.0201948,123.9376499,94.1305681,80.0859378
17.1297600,-0.0195969,124.0643817,94.3193927,80.2479217
17.1657700,-0.0185020,124.2257236,94.4974296,80.4454779
17.3297680,-0.0166794,124.2612908,94.5180979,80.5177452
17.3617630,-0.0139582,124.2451447,94.4397137,80.5085180
17.4087630,-0.0102959,124.1478297,94.2700947,80.4210452
17.4537700,-0.0058642,124.0139578,94.1708899,80.2832537
17.6127620,-0.0011471,123.9335952,94.1190261,80.2315724
17.6517660,0.0032133,123.7744888,93.9777791,80.0452673
17.6917640,0.0066529,123.7014930,93.9449180,79.9984740
17.7277630,0.0088841,123.6721065,93.8689989,79.9717661
17.8897620,0.0103017,123.5730776,93.7108107,80.1820383
17.9277610,0.0120348,123.4898178,93.5976012,80.4028953
17.9627600,0.0150081,123.5527169,93.5935475,80.4107723
18.1207640,0.0189656,123.7701170,93.7576827,80.2268103
18.1577630,0.0225876,124.0009805,93.8812671,80.0630330
18.1947610,0.0244471,124.0730612,93.8819182,80.1003419
18.2357640,0.0237214,124.1296488,93.9260857,80.1343500
18.4067610,0.0204828,124.1606498,93.9060706,80.1293000
18.4467620,0.0159411,124.2450508,93.9031048,80.1725915
18.4817640,0.0119350,124.3627832,93.9145519,80.1527755
18.5227620,0.0095866,124.3531329,93.8601077,80.0734839
18.6777630,0.0087082,124.2500841,93.6980031,79.8368152
18.7197630,0.0085293,124.2011584,93.5354857,79.6966629
18.7527620,0.0084194,124.1400977,93.4202931,79.5783119
18.7967600,0.0080503,124.0640990,93.2845286,79.4671386
18.9547640,0.0074352,124.0737113,93.2225854,79.4272641
19.0017680,0.0068157,124.2038130,93.3777781,79.6095998
19.0417640,0.0062831,124.2789180,93.5650123,79.7399784
19.2227690,0.0056114,124.4334820,93.7057307,79.8454843
19.2617630,0.0045268,124.4363642,93.6963721,79.7480831
19.3027660,0.0028874,124.4655632,93.7204630,79.7343165
19.3387840,0.0007662,124.5126989,93.6858418,79.6930186
19.4967620,-0.0014960,124.7192710,93.8917304,79.8482355
19.5377650,-0.0035922,124.9867930,94.3579997,80.2378083
19.5747640,-0.0054537,125.2325181,94.6330517,80.4982190
19.6197640,-0.0070889,125.4176271,94.9523468,80.7747878
19.7807640,-0.0085455,125.5837830,95.1273100,80.9518881
19.8207620,-0.0098642,125.6794420,95.2598881,81.0755749
19.8597620,-0.0109084,125.8754964,95.5289082,81.3418445
19.9007710,-0.0120060,125.6613175,95.6735827,80.7318126
20.0638010,-0.0140374,125.8558277,95.8790551,81.0078864
20.1017640,-0.0169859,125.8882391,95.8689628,81.1111878
20.1397630,-0.0198717,126.0034343,95.9560879,81.2589172
20.1797620,-0.0218056,125.8826369,95.7529784,81.1492763
20.3327630,-0.0217435,125.8323278,95.5703020,81.0729524
20.3677620,-0.0186456,125.7709178,95.4633706,81.0207621
20.4087680,-0.0129015,125.8694773,95.5265480,81.1012434
20.4487620,-0.0061587,125.9740138,95.6259379,81.2317067
20.6197710,0.0000452,126.0422802,95.7220405,81.3332625
20.6587600,0.0047926,126.0279972,95.6874013,81.3376948
20.6967620,0.0078841,126.1127305,95.6957517,81.4092461
20.7377740,0.0096761,126.0427066,95.6148350,81.3059399
20.8967610,0.0106404,126.1038347,95.6697248,81.3591086
20.9287630,0.0110979,126.1958538,95.8232109,81.4891361
20.9767620,0.0111673,126.3493857,96.0550807,81.7082969
21.0127610,0.0108318,126.2070275,95.8099702,81.4817038
21.1957650,0.0101085,126.3271814,95.9801444,81.6325503
21.2307620,0.0091553,126.3133775,95.8853762,81.5794365
21.2767620,0.0082343,126.3005245,95.8840474,81.5662489
21.3188000,0.0075291,126.2807929,95.9024485,81.5594822
21.5107620,0.0069817,126.3996448,96.0640695,81.7075426
21.5457630,0.0064689,126.4229647,95.9978575,81.7013892
21.5897640,0.0059618,126.7245537,96.3185026,81.9776486
21.6287650,0.0053822,126.9440807,96.5272134,82.1809227
21.7947640,0.0046785,127.2269720,96.8887284,82.5384821
21.8307670,0.0038884,127.3194735,97.0545362,82.6644303
21.8747650,0.0029380,127.4464038,97.1862331,82.7372187
21.9107630,0.0016772,127.6168168,97.3854741,82.8872941
22.0767610,0.0000928,127.7854789,97.6314566,83.1013275
22.1147630,-0.0016933,127.8763631,97.8106330,83.2672617
22.1577640,-0.0034424,127.9389836,97.8869800,83.3790706
22.1927610,-0.0048317,128.0906602,98.0501317,83.5287530
22.3477600,-0.0056171,128.2216417,98.1772443,83.7090064
22.3867630,-0.0056798,128.4200036,98.4350097,84.0142310
22.4277620,-0.0050012,128.6092121,98.6205077,84.2699761
22.4697630,-0.0036909,128.7968553,98.7939303,84.4737471
22.6317630,-0.0020497,129.1512673,99.2303678,84.8852427
22.6737770,-0.0004742,129.3199178,99.4712927,85.1813576
22.7157630,0.0007046,129.3216675,99.6081505,85.2924228
22.7567660,0.0013843,129.4264593,99.5902218,85.3972223
22.9147910,0.0017852,129.7022969,99.7562233,85.5804230
22.9487610,0.0021592,129.7539127,99.8002406,85.5198017
22.9958340,0.0026154,129.8860697,99.7616915,85.5233406
23.0407630,0.0033053,129.9575142,99.7584063,85.5288134
23.2217610,0.0042570,130.0646729,99.8185226,85.5848533
23.2577620,0.0051745,130.2038096,99.8788673,85.6709868
23.3497890,0.0059087,130.3564940,99.9205136,85.7638812
23.3947630,0.0065844,130.5165642,100.0491585,85.8739056
23.5617640,0.0071760,130.6949393,100.1894692,86.0460881
23.6057630,0.0075760,130.7860591,100.3005871,86.1902840
23.6397650,0.0078111,130.7286381,100.1532281,86.1144118
23.6777610,0.0079633,130.7478315,100.0889819,86.0926338
23.8537740,0.0080774,130.7368649,100.0454285,86.0660864
23.8887650,0.0081437,130.6511802,99.9629465,85.9887646
23.9237630,0.0080898,130.6805128,100.0000541,86.0341106
23.9647610,0.0077596,130.7584738,100.1199924,86.1359163
23.9997610,0.0069497,130.7999240,100.1939520,86.2295000
24.1647630,0.0056055,130.7117438,100.1428581,86.2130172
24.1997600,0.0039278,130.5335363,99.9464279,86.0314147
24.2437640,0.0022229,130.3499019,99.7625205,85.8615738
24.2797610,0.0008139,130.2619356,99.6358469,85.8355986
24.4447670,0.0000178,130.1851966,99.5068073,85.7765046
24.4797630,-0.0000308,130.2063737,99.5001474,85.8242397
24.5197750,0.0004814,130.1419027,99.4762941,85.7822005
24.5577620,0.0011386,130.0347941,99.4502862,85.7485332
24.7227610,0.0014855,130.0979234,99.5495845,85.8330755
24.7557620,0.0011529,130.1758079,99.6699738,85.9268107
24.7967640,-0.0000300,130.2307063,99.8004835,86.0464127
24.8417720,-0.0019303,130.3362599,99.9475261,86.1710020
25.0137610,-0.0041180,130.3060289,99.9291326,86.1791349
25.0557630,-0.0061183,130.3142058,100.0020148,86.2204367
25.0927610,-0.0077637,130.1691943,99.8625844,85.9371547
25.1347620,-0.0091352,130.2033130,99.8227625,85.8658965
25.3027650,-0.0102574,130.2915779,99.9646767,85.9996971
25.3387650,-0.0111116,130.3300738,99.9894424,86.0092109
25.3807620,-0.0117035,130.1679317,99.8189931,85.8252903
25.4177640,-0.0118982,130.1636183,99.7542793,85.7672465
25.5877630,-0.0114823,130.1156841,99.6692489,85.6792135
25.6267650,-0.0104674,130.1116329,99.6088288,85.5787803
25.6667610,-0.0090811,130.1345800,99.6155748,85.5773229
25.7067630,-0.0075662,130.2215615,99.6827050,85.6339476
25.8887630,-0.0061096,130.2075336,99.6495600,85.6003460
25.9227650,-0.0048538,130.2323510,99.6818300,85.6096741
25.9617630,-0.0038315,130.2838121,99.6922327,85.6550314
25.9967610,-0.0028818,130.3566852,99.7142366,85.7335610
26.1827620,-0.0017830,130.2710050,99.6095302,85.6633143
26.2197640,-0.0004776,130.2145878,99.5496488,85.5891052
26.2597670,0.0009138,130.1124969,99.4441926,85.4767511
26.2957620,0.0022016,130.0870450,99.4253864,85.4443571
26.4667600,0.0031468,130.1161966,99.4536933,85.4538392
26.4997630,0.0035945,130.1525449,99.4461739,85.4955035
26.5417630,0.0036732,130.2370419,99.4917479,85.5776298
26.5787640,0.0036732,130.2964870,99.5362347,85.6249217
26.7387640,0.0038170,130.3092004,99.4960812,85.6124818
26.7757620,0.0042014,130.2291766,99.3544105,85.4414200
26.8167610,0.0047330,130.1011344,99.1852681,85.2465833
26.8517610,0.0051315,129.9718856,99.0348768,85.0646106
27.0237610,0.0051650,129.8625944,98.8772017,84.8965595
27.0577810,0.0048001,129.9139455,98.9320565,84.9502891
27.0977630,0.0041622,130.0400264,99.0218712,85.0825707
27.1327620,0.0034459,130.0743828,99.0902170,85.1238969
27.3137650,0.0027213,129.9830634,99.0823668,85.0539692
27.3607650,0.0019156,129.9968303,99.0710396,85.0291440
27.4127660,0.0010183,129.9257194,98.9681104,84.9292361
27.4577630,0.0000856,129.8832286,98.9311019,84.8906786
27.6147610,-0.0008421,129.7984577,98.8445781,84.7946707
27.6487660,-0.0016406,129.7738674,98.8200033,84.7589142
27.6897600,-0.0021273,129.8056211,98.8362738,84.7847327
27.7277610,-0.0022406,129.8398022,98.8503757,84.8307792
27.8967610,-0.0020469,129.8602041,98.8665181,84.8624148
27.9307610,-0.0016644,129.8349251,98.8478847,84.8315471
27.9707630,-0.0012105,129.7971017,98.8123066,84.8062469
28.0077630,-0.0007677,129.9020399,98.9067737,84.8915304
28.1787660,-0.0003900,129.9411742,98.9087289,84.9243500
28.2147640,-0.0000334,129.9401519,98.8080914,84.8905965
28.2627620,0.0004625,129.8867281,98.7009670,84.7969503
28.3077620,0.0011700,129.8972415,98.7280013,84.8070878
28.5027640,0.0019606,129.8966948,98.7577017,84.8273883
28.5407630,0.0026187,130.0196288,98.8988131,84.9632652
28.5947640,0.0028888,129.9989211,98.9369164,84.9797447
28.6337640,0.0025422,129.9448559,98.9150909,84.9496741
28.8047660,0.0015966,129.8465995,98.8328424,84.8572805
28.8517610,0.0003323,129.7436319,98.7376864,84.7492679
28.8917660,-0.0009170,129.7077577,98.6710708,84.6850603
28.9337670,-0.0018905,129.7172350,98.6598537,84.6731353
29.1302800,-0.0024190,129.8115507,98.7041936,84.7415873
29.1672780,-0.0024345,129.8303145,98.6835932,84.7436892
29.2109480,-0.0025315,129.3236470,98.6422356,84.0449461
29.2589580,-0.0038663,129.4111228,98.6870469,84.1200562
29.4466360,-0.0067199,129.4419271,98.7213493,84.1510099
29.4949000,-0.0103795,129.4636688,98.7513956,84.1724528
29.5449130,-0.0141254,129.3734985,98.7140902,84.1074442
29.6099160,-0.0169643,129.3374542,98.6086572,84.0406705
29.8089110,-0.0175637,129.2405972,98.4251785,83.9412129
29.8539170,-0.0155896,129.1851803,98.3170937,83.8659545
29.8989140,-0.0118967,129.1843880,98.2739584,83.8484538
29.9459130,-0.0075131,129.1951877,98.2630395,83.8480761
30.1429180,-0.0032176,129.2440345,98.3091833,83.8960230
30.1819120,0.0004122,129.3472623,98.4250892,84.0022386
30.2289200,0.0030048,129.3706714,98.4584980,84.0265494
30.2659140,0.0045187,129.3205760,98.4265135,84.0031381
30.4519160,0.0051964,129.3206837,98.4274041,84.0204504
30.4959170,0.0054351,129.3286990,98.3658662,84.0091990
30.5453200,0.0056432,129.2528035,98.2839196,83.9497495
30.5843110,0.0060107,129.2815338,98.3641246,83.9942152
30.7773170,0.0064326,129.2708228,98.4114873,84.0274964
30.8173110,0.0067074,129.2687251,98.4194849,84.0420475
30.8663140,0.0066824,129.2561099,98.4125383,84.0317838
30.9103140,0.0062626,129.2972951,98.4718590,84.0901320
31.1003380,0.0055230,129.3012226,98.4618033,84.0873758
31.1473380,0.0047362,129.2246515,98.3798512,84.0087585
31.1913390,0.0041415,129.1419641,98.2931792,83.9245398
31.2333370,0.0037881,129.1443005,98.2890012,83.9155384
31.4363410,0.0036185,129.1635467,98.2938110,83.9394596
31.4803360,0.0035822,129.1940789,98.3020636,83.9708440
31.5283370,0.0036409,129.2339249,98.3297543,84.0104263
31.5783430,0.0037194,129.3733784,98.5087271,84.1694885
31.7943410,0.0036510,129.4026407,98.6599680,84.2694134
31.8453370,0.0032295,129.3730518,98.6914556,84.2890403
31.8863370,0.0023586,129.1708069,98.5757983,84.1886433
31.9313420,0.0010884,129.0309273,98.5040320,84.1152669
32.1299260,-0.0004807,128.9296164,98.5439243,84.0954874
32.1879260,-0.0021256,128.9979438,98.5693429,84.1753203
32.2289280,-0.0034409,129.0130452,98.5790678,84.1855128
32.2769310,-0.0041333,129.0169573,98.5582703,84.1914123
32.4639260,-0.0041430,129.2480127,98.7428216,84.4193155
32.5099280,-0.0035021,129.2332257,98.7709274,84.4379891
32.5509250,-0.0024141,129.1727794,98.8216309,84.4937391
32.6059160,-0.0012147,129.0231723,98.5869229,84.3268125
32.6419140,-0.0000287,128.8195521,98.2525767,84.0475664
32.8249750,0.0011516,128.6091339,98.0227715,83.7928746
32.8729820,0.0022486,128.5112744,97.9081072,83.7012527
32.9159750,0.0032824,128.4935486,97.8910320,83.7313930
32.9639750,0.0042876,128.5977975,98.0449465,83.8854778
33.1550400,0.0049688,128.8655773,98.5036321,84.3158348
33.1960440,0.0048840,129.0216968,98.7836463,84.5584291
33.2410380,0.0038621,129.2432062,99.1477355,84.8888823
33.2870410,0.0019870,129.2981333,99.3143557,85.0231377
33.4730710,-0.0005092,129.2095910,99.2737841,84.9662306
33.5100700,-0.0031716,129.0655733,99.1414109,84.8386809
33.5480650,-0.0054258,128.9234178,99.0119653,84.6996758
33.5900750,-0.0068417,128.8209982,98.8498094,84.5415840
33.7658480,-0.0072858,128.8726759,99.0007994,84.6803283
33.8108540,-0.0069310,128.8985193,99.0306538,84.7080581
33.8558470,-0.0061226,129.0461233,99.2065291,84.8709182
33.9068500,-0.0051857,129.1517406,99.3280814,85.0097719
34.0808700,-0.0043108,129.3584357,99.4809726,85.1537153
34.1188590,-0.0035266,129.4195603,99.5486734,85.2348013
34.1578610,-0.0027590,129.5199626,99.6602487,85.3390413
34.1998610,-0.0019442,129.5330038,99.6477430,85.3297108
34.3680710,-0.0010432,129.5342397,99.5116332,85.1780200
34.4100780,-0.0001032,129.4756398,99.4590569,85.0534206
34.4610700,0.0006737,129.3893891,99.3905828,84.9511027
34.4990690,0.0011366,129.3630579,99.3179675,84.8709168
34.6700720,0.0013491,129.3145015,99.2058247,84.7637126
34.7070700,0.0014506,129.1199002,98.9875444,84.5624823
34.7480700,0.0015682,128.9870949,98.8236545,84.4026691
34.7820680,0.0018801,128.9559225,98.7466088,84.3496855
34.9740730,0.0025226,128.9082838,98.6563202,84.2838212
35.0230850,0.0034126,128.7794823,98.5586163,84.1810316
35.0688700,0.0042894,128.7190740,98.5097963,84.1463229
35.1118720,0.0049204,128.6527636,98.4595337,84.0899225
35.3078770,0.0051860,128.6545866,98.4911691,84.1294285
35.3538740,0.0050307,128.7092340,98.5716400,84.1905474
35.3928740,0.0045489,128.7568213,98.5061437,84.1750576
35.4468720,0.0040362,128.6980412,98.4169229,84.1050363
35.6335190,0.0037458,128.6362114,98.3287170,84.0253544
35.6770420,0.0037193,128.6391447,98.3612606,84.0514168
35.7260440,0.0038598,128.7358853,98.4781955,84.1694118
35.7810380,0.0039748,128.7615269,98.5357677,84.2150340
35.9910450,0.0038007,128.8344721,98.6286356,84.2936312
36.0420390,0.0031816,128.8519361,98.6699262,84.3230253
36.0878880,0.0021802,128.8749922,98.7151899,84.3575504
36.1318880,0.0009889,128.8992486,98.7574137,84.3856127
36.3108880,-0.0001973,128.9412118,98.8042740,84.4135570
36.3508860,-0.0012446,128.9308697,98.7933707,84.3838022
36.3998860,-0.0020842,128.9425970,98.8000071,84.3777559
36.4468850,-0.0026848,128.9494829,98.7841398,84.3648438
36.6418890,-0.0029963,129.0123179,98.7928174,84.3989444
36.6848850,-0.0029496,129.0606487,98.8119772,84.4366633
36.7348880,-0.0025054,129.0401711,98.7409598,84.3986553
36.7808880,-0.0017888,128.9506601,98.7137135,84.2556893
36.9758900,-0.0011368,129.0337919,98.8264377,84.3495503
37.0168880,-0.0008236,129.0670216,98.8368526,84.3778017
37.0746370,-0.0008712,129.0690576,98.8401998,84.4133733
37.1146370,-0.0011657,128.9548296,98.7310157,84.3228349
37.3456410,-0.0014955,128.8295599,98.6009313,84.2001800
37.4066400,-0.0015343,128.8312162,98.5584044,84.1826549
37.4656390,-0.0010773,128.9054679,98.5957888,84.2537723
37.5146370,-0.0001698,128.8629929,98.4818520,84.1985227
37.7186430,0.0010286,129.0088102,98.6088572,84.3477488
37.7626370,0.0023121,129.0945968,98.7564953,84.5169236
37.8066390,0.0034340,129.1059371,98.8357665,84.6003790
37.8526340,0.0041644,129.0603066,98.8200350,84.5938632
37.9016370,0.0043873,129.0426375,98.7191142,84.4993709
38.1132560,0.0041640,129.0252558,98.6316194,84.4268774
38.1682550,0.0037143,129.0072592,98.5704113,84.3761731
38.2142540,0.0033140,128.9751302,98.5100499,84.3361622
38.2662550,0.0031836,129.0410651,98.5089832,84.3631297
38.4582810,0.0033804,128.9029423,98.3826927,84.2657849
38.5062860,0.0037708,128.7851841,98.3413759,84.3084222
38.5512800,0.0042002,128.6658938,98.2450484,84.2973224
38.6022790,0.0045312,128.5213283,98.3371248,84.4064169
38.7853030,0.0045413,128.3790590,98.2513617,84.3273946
38.8343040,0.0040697,128.4176008,98.3293825,84.4121816
39.0073090,0.0031176,128.4688629,98.4390715,84.5004097
39.0543060,0.0016829,128.5019695,98.5650003,84.5832281
39.2431640,-0.0002208,128.5565083,98.7040335,84.6719397
39.2861560,-0.0023519,128.5593019,98.6698708,84.6497004
39.3321560,-0.0042909,128.5930129,98.6540513,84.6759646
39.3721640,-0.0056569,128.6378128,98.6588539,84.7125276
39.6091610,-0.0062778,128.5893174,98.6554870,84.6571533
39.6661560,-0.0062106,128.7140865,98.7608313,84.7554676
39.8701590,-0.0056171,128.8268404,98.8441291,84.8589797
39.9141570,-0.0047576,128.9996854,99.0079108,85.0253693
39.9491560,-0.0045162,128.5975952,99.1459518,84.5237603
39.9861540,-0.0060867,128.7738455,99.3015349,84.6812288
40.0201550,-0.0094707,128.9005999,99.4132725,84.8013544
40.0751560,-0.0136150,128.9166012,99.4480020,84.8317205
40.1041540,-0.0176069,128.9553925,99.5576760,84.9178865
40.1448530,-0.0204650,129.0169558,99.6527285,84.9896874
40.3188560,-0.0210777,128.8935664,99.5422041,84.8805236
40.3528540,-0.0193906,128.8841931,99.5371783,84.8623915
40.3938570,-0.0164068,128.8337141,99.4994700,84.8220847
40.4328530,-0.0130891,128.9376555,99.5882180,84.9154757
40.4678520,-0.0099553,129.0655741,99.7707634,85.0778113
40.5078530,-0.0072087,129.2893481,100.0113099,85.3031487
40.6718580,-0.0048733,129.2778107,99.9972337,85.3093307
40.7088640,-0.0028188,129.3831589,100.0696873,85.4094167
40.7448590,-0.0008789,129.4503722,100.1070281,85.4631913
40.7828550,0.0010571,129.3825627,99.9960147,85.3631536
40.8208530,0.0030379,129.4224576,100.0280742,85.3844880
41.0148530,0.0050021,129.4702776,100.0518285,85.4073851
41.0568530,0.0067994,129.5456729,100.0815516,85.4535632
41.0968600,0.0083083,129.6767180,100.1579115,85.5384870
41.1368550,0.0095055,129.6413020,100.0634371,85.4750537
41.1788540,0.0104583,129.7427351,100.1414102,85.5641340
41.3458550,0.0112134,129.6713638,100.1404770,85.5572433
41.3878530,0.0117340,129.7089199,100.1494189,85.5944890
41.4268550,0.0119718,129.5276751,99.9730612,85.4180758
41.4668530,0.0118931,129.3851205,99.7592900,85.1920136
41.6288540,0.0114837,129.3964162,99.7381761,85.1513856
41.6668530,0.0109155,129.3234063,99.4621162,84.9418004
41.7018550,0.0105993,129.1784432,99.1234757,84.6722608
41.7416930,0.0108769,129.1307615,98.9611431,84.5671495
41.7776960,0.0117862,129.1171917,98.8746985,84.5135036
41.9366920,0.0131180,129.1362108,98.8676952,84.5422227
41.9766950,0.0144727,129.1870393,98.9272974,84.6084355
42.0216880,0.0152809,129.2956960,99.0921629,84.7817912
42.0606870,0.0151079,129.3336291,99.1091932,84.8495127
42.2326910,0.0139366,129.4374272,99.2437165,84.9911839
42.2666870,0.0120082,129.4160496,99.2925340,85.0355204
42.3116900,0.0096059,129.4332355,99.2966090,85.0012533
42.3496880,0.0069950,129.5020441,99.4380585,85.1166092
42.5117230,0.0044052,129.5324538,99.3414530,85.0418261
42.5526940,0.0020236,129.6125501,99.4501015,85.1505082
42.5856880,-0.0000169,129.6881072,99.5322450,85.2497508
42.6256920,-0.0016308,129.6981372,99.5677384,85.2894712
42.7806880,-0.0027733,129.7544526,99.6438397,85.3811383
42.8196900,-0.0035071,129.6744313,99.5449240,85.2760242
42.8526860,-0.0040127,129.5845331,99.4424355,85.1801622
42.8906890,-0.0044155,129.5390289,99.3682374,85.1164695
42.9276890,-0.0047238,129.6687680,99.4843412,85.2329390
43.0946910,-0.0048850,129.5920278,99.3551497,85.1374153
43.1307280,-0.0048563,129.5841096,99.3724073,85.1391680
43.3125040,-0.0046756,129.5502608,99.3030875,85.0824922
43.3485030,-0.0044008,129.5089806,99.2517082,85.0591827
43.5102750,-0.0040652,129.3846709,99.1298931,84.9443299
43.5482720,-0.0037364,129.3468265,99.0982653,84.9157139
43.5792730,-0.0035251,129.3756518,99.2035026,84.9993811
43.6152750,-0.0035266,129.2815552,99.1571956,84.9410655
43.7802750,-0.0038847,129.0169327,99.0457311,84.7362276
43.8262840,-0.0047227,128.9077896,98.9266742,84.6510587
43.8622760,-0.0058790,128.8574527,98.8771176,84.6244696
44.0312730,-0.0070092,128.9047176,98.9922174,84.7345650
44.0759490,-0.0078622,128.8074829,98.9359027,84.6713465
44.1099550,-0.0082398,128.6557103,98.7561834,84.5087665
44.1464400,-0.0079801,128.6358708,98.7474482,84.5240707
44.1804420,-0.0071764,128.3818450,98.4640914,84.2494433
44.3534410,-0.0060656,128.2367554,98.2598518,84.0592615
44.3924550,-0.0047817,128.2012323,98.1895310,83.9692890
44.5514390,-0.0033930,128.1568596,98.0509307,83.8522043
44.5944440,-0.0019744,128.0554159,97.9006325,83.6878727
44.6324440,-0.0006202,128.0799677,97.8595500,83.6414106
44.6654410,0.0005736,128.0266145,97.7750200,83.5558669
44.7024400,0.0015790,127.9746674,97.6434431,83.4456859
44.7374400,0.0024284,127.9802546,97.6516889,83.4645299
44.7784430,0.0030815,128.0058543,97.7001613,83.4847878
44.8174390,0.0034548,128.0116011,97.7221761,83.5250312
44.9814400,0.0035132,128.0048182,97.7700219,83.5464537
45.0224410,0.0032229,128.0631466,97.8572819,83.6313955
45.0714400,0.0025687,128.1704980,97.9992697,83.7662617
45.1034380,0.0016432,128.2721383,98.1356467,83.8898725
45.1464480,0.0006207,128.4107759,98.2646054,84.0114004
45.1814410,-0.0003688,128.5341049,98.4811368,84.1949903
45.3414850,-0.0013031,128.6129938,98.6167657,84.2983625
45.3804800,-0.0021652,128.7361243,98.7127114,84.4294814
45.4184430,-0.0028396,128.7933722,98.7715767,84.4969905
45.4616310,-0.0032305,128.9144837,98.9179628,84.6448571
45.4976290,-0.0033578,128.9348175,98.9866210,84.6874192
45.6546710,-0.0032691,129.0430428,99.1285000,84.8174550
45.6846330,-0.0030842,129.1318307,99.2733858,84.9103668
45.7306310,-0.0030283,129.2257813,99.3628254,84.9878625
45.7626310,-0.0032084,129.2817776,99.4095992,85.0279666
45.7996310,-0.0035123,129.2752857,99.4049644,85.0157931
45.9526330,-0.0037417,129.2109832,99.3466046,84.9595177
45.9926310,-0.0037210,129.1941478,99.3265953,84.9378652
46.0296330,-0.0033414,129.1786078,99.2682728,84.8877057
46.0736590,-0.0026536,129.2649727,99.3734762,84.9558064
46.1116330,-0.0018764,129.3452481,99.4644228,85.0179754
46.2837490,-0.0012069,129.3606152,99.4601112,85.0187406
46.3267510,-0.0007117,129.3458834,99.4678256,85.0119125
46.3697510,-0.0004043,129.3553826,99.4845528,85.0276611
46.4117510,-0.0002626,129.3751314,99.5266777,85.0619780
46.5817580,-0.0002043,129.3829749,99.5676259,85.0790542
46.6197540,-0.0001886,129.3303338,99.5577951,85.0523755
46.6517510,-0.0002299,129.3389217,99.5683278,85.0700707
46.6877490,-0.0002690,129.2750969,99.4910766,85.0316339
46.7237510,-0.0001860,129.2259348,99.4313416,84.9769679
46.8817530,0.0000782,129.1410527,99.3775126,84.9099483
46.9147510,0.0004865,129.0702073,99.3426690,84.8589763
46.9527490,0.0009476,129.0228111,99.3019421,84.8210197
46.9897510,0.0013402,129.0022387,99.2869310,84.8026966
47.1544460,0.0015567,128.9260324,99.2142606,84.7416970
47.1879610,0.0015910,128.8815222,99.1903290,84.7126520
47.2249620,0.0015375,128.7921540,99.1316224,84.6561164
47.2599640,0.0014841,128.7322729,99.0941928,84.6098461
47.4209990,0.0014521,128.6906853,99.0598986,84.5812362
47.4610000,0.0014483,128.7675867,99.1039205,84.6452250
47.4969650,0.0015382,128.9016869,99.1805317,84.7546483
47.5349610,0.0018521,129.1198516,99.3380194,84.9559892
47.6949640,0.0024429,129.1645102,99.4252296,85.0080046
47.7376450,0.0032082,129.2558382,99.4575051,85.0673653
47.7706460,0.0040187,129.3307593,99.5092953,85.1364710
47.8156450,0.0047163,129.4769895,99.6766431,85.2876943
47.9706490,0.0050634,129.5208641,99.7502111,85.3513629
48.0136520,0.0049577,129.5359300,99.7494900,85.3650242
48.0526460,0.0045467,129.5223258,99.7216567,85.3431200
48.0946470,0.0039897,129.4881675,99.6807007,85.2962833
48.2928980,0.0033533,129.4020719,99.6244611,85.2290063
48.3338960,0.0027122,129.4457805,99.6615129,85.2671070
48.3728980,0.0021588,129.4782814,99.6616068,85.2855608
48.4108960,0.0017433,129.4981992,99.6568026,85.2881156
48.4468940,0.0011080,129.3374302,99.8246441,85.0407185
48.6109330,-0.0003925,129.2697764,99.7014807,84.9412340
48.6509020,-0.0027539,129.1014859,99.4737975,84.7447798
48.6838960,-0.0053559,128.9305270,99.2923244,84.5819612
48.7198950,-0.0076572,128.8864992,99.2163803,84.5540447
48.8879000,-0.0090160,128.8452120,99.1468250,84.5108748
48.9259460,-0.0087566,128.9242738,99.2399159,84.6128374
48.9608950,-0.0070325,128.8762064,99.1882404,84.5502354
48.9948960,-0.0046885,129.0028826,99.2936873,84.6786754
49.0328960,-0.0024312,129.0650128,99.3132130,84.7289598
49.2138140,-0.0005766,129.0170889,99.1904438,84.6384863
49.2538090,0.0009086,128.9928942,99.0854279,84.5687556
49.2888110,0.0022398,129.0451277,99.0973349,84.5943383
49.3288100,0.0035648,129.1413349,99.1873464,84.7026191
49.4978120,0.0048339,129.1929229,99.2330794,84.7510886
49.5338110,0.0059086,129.1638262,99.1315920,84.6989999
49.5690640,0.0066777,129.1879013,99.1741941,84.7422311
49.6080620,0.0070195,129.0748259,99.0870091,84.6203323
49.6450610,0.0067847,128.8665102,98.9326575,84.3653746
49.8149170,0.0059796,128.7766262,98.7673053,84.2698380
49.8509160,0.0049772,128.6341586,98.4557654,84.0958581
49.8839140,0.0042995,128.6399522,98.4193955,84.1170000
49.9219140,0.0042194,128.6451572,98.4533882,84.1588679
50.0939180,0.0047163,128.7012649,98.5986420,84.3050689
50.1279150,0.0055171,128.7834553,98.7549341,84.4412484
50.1629160,0.0060004,128.9108676,98.9623161,84.6080379
50.1976950,0.0054719,129.0001882,99.1205327,84.7218402
50.3806860,0.0037284,129.0572366,99.2128231,84.7927996
50.4226840,0.0011449,129.0078857,99.2146592,84.7563763
50.4646880,-0.0016817,129.1218116,99.3478473,84.8697108
50.5006830,-0.0042131,129.1003421,99.3326468,84.8464912
50.5356850,-0.0061129,129.1838845,99.4667546,84.9515678
50.7083270,-0.0073034,129.1597886,99.4297968,84.9106509
50.7383440,-0.0078609,129.1268871,99.3924169,84.8663874
50.7753480,-0.0079032,129.0588947,99.3167906,84.7851778
50.8083500,-0.0075872,129.0203735,99.2829767,84.7358427
50.9643500,-0.0070632,129.0296675,99.2951270,84.7457866
50.9993470,-0.0064161,129.0133378,99.2697782,84.7098118
51.0373450,-0.0057010,128.9894198,99.2384857,84.6888665
51.0843490,-0.0049672,129.0841725,99.3453108,84.7874236
51.2490530,-0.0042827,129.1288742,99.4422359,84.8518347
51.2877900,-0.0037090,129.3409589,99.5910091,84.9881290
51.3207850,-0.0032182,129.3773707,99.5865951,84.9781331
51.3587810,-0.0027367,129.4369013,99.6238032,85.0198646
51.3977870,-0.0022644,129.4496874,99.7113228,85.0760626
51.5547790,-0.0018760,129.4841137,99.8190764,85.1595809
51.5908520,-0.0016173,129.3424853,99.6828185,85.0296985
51.6278160,-0.0014946,129.3814259,99.7407683,85.0773610
51.6628160,-0.0015886,129.2828968,99.7322581,84.9809466
51.8228150,-0.0019871,129.2249015,99.6796281,84.9167114
51.8548150,-0.0025579,129.3748605,99.8771845,85.1205951
51.8918190,-0.0031019,129.6404796,100.2549281,85.4760935
51.9268210,-0.0035755,129.6265808,100.2514215,85.4755969
52.0948140,-0.0039017,129.6411224,100.2637818,85.4828019
52.1318140,-0.0039075,129.7142417,100.3176798,85.5285846
52.1658140,-0.0035036,129.7685190,100.3330866,85.5916810
52.2038140,-0.0026975,129.7222406,100.3193293,85.5680314
52.3678520,-0.0015741,129.7437625,100.3580945,85.6264534
52.4068470,-0.0003094,129.7488743,100.3964873,85.6704893
52.4538480,0.0008912,129.6710303,100.3442522,85.6067731
52.4898470,0.0018384,129.6290118,100.2991873,85.5604283
52.6468470,0.0024650,129.5636238,100.1891991,85.4801304
52.6808470,0.0029128,129.5054376,100.0844854,85.3998951
52.7218450,0.0034486,129.5166377,100.0175176,85.4310727
52.7558470,0.0043919,129.5911269,99.9637528,85.4736032
52.9198890,0.0059138,129.7075705,100.0830664,85.5866923
52.9558470,0.0077970,129.7490928,100.1148312,85.6290441
52.9888500,0.0096153,129.8015902,100.1674218,85.7161341
53.0388560,0.0109862,129.7640727,100.1113381,85.6594360
53.2018480,0.0115824,129.8095480,100.1686720,85.7266320
53.2408470,0.0112709,129.7495278,100.1056712,85.6631633
53.2778480,0.0102747,129.7455841,100.0810015,85.6501825
53.3148460,0.0089911,129.4568208,99.7658378,85.3720424
53.4748510,0.0077490,129.2738413,99.5716009,85.2081011
53.5128510,0.0067280,129.1401086,99.4270401,85.0767984
53.5458500,0.0059420,129.1763082,99.4781553,85.1168332
53.5838480,0.0052764,129.1156194,99.4282759,85.0649668
53.6208510,0.0045542,129.0609157,99.4148164,85.0421782
53.7898480,0.0035096,128.7894002,99.3468906,84.8954468
53.8328460,0.0018780,128.8397502,99.4617972,84.9948635
53.8668480,-0.0002836,128.7342158,99.3153112,84.8618227
53.9038500,-0.0025563,128.6809501,99.2113256,84.7785603
54.0768480,-0.0044819,128.6401930,99.1301025,84.7004360
54.1158490,-0.0057258,128.6623768,99.1675105,84.7298592
54.1508550,-0.0061138,128.6978241,99.2181074,84.7777304
54.1858480,-0.0057948,128.6938164,99.2440795,84.7863599
54.3458900,-0.0052054,128.7226838,99.2839555,84.8182642
54.3868500,-0.0047499,128.7580486,99.3165599,84.8456918
54.4188470,-0.0045676,128.7992337,99.3451792,84.8812752
54.4638490,-0.0045569,128.8474881,99.3882877,84.9173670
54.5018570,-0.0045458,128.8234259,99.3799625,84.9122622
54.6818550,-0.0043539,129.0124913,99.4781785,85.0527366
54.7198570,-0.0037949,129.1269350,99.5560828,85.1927478
54.7518570,-0.0028319,129.3146210,99.7716955,85.3966868
54.7888570,-0.0016390,129.3000202,99.7082914,85.3361463
54.9452220,-0.0003794,129.4046323,99.7229520,85.3662349
54.9822180,0.0008261,129.5114906,99.8842347,85.5342144
55.0172200,0.0018382,129.4799665,99.7548646,85.5025111
55.0572210,0.0026756,129.4960302,99.7392226,85.5025884
55.2192220,0.0034961,129.6369563,99.8101110,85.6093584
55.2582190,0.0043473,129.7490825,99.9535228,85.7574275
55.2892190,0.0051200,129.6910253,99.8864621,85.6850614
55.3232170,0.0056034,129.6208934,99.8796714,85.6581826
55.4922270,0.0055838,129.5209138,99.7114099,85.5183420
55.5382190,0.0050358,129.4190565,99.6179381,85.4083944
55.5762190,0.0040999,129.4015511,99.5957906,85.3910354
55.6162180,0.0030156,129.3650942,99.5545893,85.3912614
55.7762280,0.0020917,129.3166672,99.4955465,85.3597753
55.8132200,0.0014526,129.2281939,99.4641565,85.2764353
55.8542200,0.0009626,129.2331886,99.4451573,85.2833461
55.8902200,0.0005230,129.2954512,99.4928400,85.3422920
55.9222180,0.0001805,129.1583789,99.3156559,85.2436253
56.0862200,0.0000852,129.1012505,99.1245845,85.1577874
56.1272190,0.0004533,129.0362281,99.0216081,85.0582759
56.1642170,0.0013245,128.9398573,98.9292286,84.9625973
56.2012170,0.0024225,128.9674384,99.0012062,85.0209051
56.3662230,0.0033441,129.0076971,99.0133954,85.0433884
56.4632200,0.0037861,129.1739850,99.0275628,85.0834794
56.5112260,0.0036498,129.1695064,99.0123512,85.0544286
56.5542220,0.0030267,129.1152792,98.9895402,84.9958327
56.7372400,0.0021195,129.1724794,99.0516886,85.0563026
56.7702400,0.0011522,129.2702630,99.1498882,85.1493425
56.8062380,0.0001917,129.3470992,99.2391729,85.2317186
56.8392390,-0.0008072,129.5307636,99.3492194,85.3579956
56.8742380,-0.0017103,129.5841993,99.2810983,85.2965674
57.0512820,-0.0022637,129.7064440,99.3620510,85.3736663
57.0862810,-0.0024043,129.8320662,99.4930377,85.4801002
57.1712850,-0.0022883,129.8987776,99.5616319,85.5268549
57.2293640,-0.0027568,129.5129602,99.7407661,84.9605128
57.2663550,-0.0051557,129.6891475,99.8910644,85.1255346
57.4353710,-0.0096921,129.7368466,99.9473797,85.1707921
57.4703690,-0.0152662,129.8181052,100.0306553,85.2472777
57.5103690,-0.0206285,129.9016415,100.1120375,85.3330937
57.5483680,-0.0243434,129.8546917,100.0169442,85.2569104
57.5883690,-0.0250249,129.8782065,100.0604832,85.2906484
57.7553660,-0.0227354,129.8536970,100.0419237,85.2630168
57.7873660,-0.0187780,129.8468502,100.0024475,85.2401011
57.8253690,-0.0143882,129.9145162,100.0501215,85.3061139
57.8603660,-0.0103232,129.9500327,100.0870700,85.3585310
57.9033650,-0.0068704,130.0384232,100.1573178,85.4535326
58.0733690,-0.0039135,130.1095330,100.1689646,85.5289104
58.1093670,-0.0011552,130.1519693,100.1637401,85.5786961
58.1473660,0.0015299,130.0586834,100.1212935,85.5209791
58.1853660,0.0040189,129.9219533,100.0092900,85.4456816
58.3508090,0.0061423,129.8423130,99.9809559,85.4296900
58.3888070,0.0077371,129.7771247,99.9198918,85.3528762
58.4228080,0.0086731,129.8136852,99.9093363,85.3730739
58.4698080,0.0090966,129.8630686,99.8567006,85.3965684
58.5048080,0.0093719,129.9394013,99.9665424,85.5076291
58.6818080,0.0097038,129.9951039,99.9992483,85.5505211
58.7198080,0.0100973,130.0375523,100.0841197,85.6451923
58.7578090,0.0104684,129.9671101,100.0126415,85.5970326
58.7968130,0.0106173,129.9973908,100.1000668,85.7104351
58.9618070,0.0103672,130.0176844,100.0862096,85.7155149
59.0018120,0.0097817,130.0890785,100.1105194,85.7545079
59.0398070,0.0089827,130.3433888,100.5024334,86.0735125
59.0818100,0.0078665,130.6303794,100.9620374,86.4893591
59.2458160,0.0062103,130.8195753,101.3474161,86.8321260
59.2818120,0.0039115,130.8042372,101.4074123,86.8715711
59.3168080,0.0010831,130.7448477,101.4003403,86.8715301
59.3528100,-0.0019371,130.6831012,101.4249340,86.8808940
59.3908080,-0.0045726,130.7461860,101.3950420,86.9066895
59.5608360,-0.0061537,130.5775179,101.1973770,86.7862301
59.6008060,-0.0062403,130.4186846,100.9844619,86.6892004
59.6418150,-0.0047866,130.3206405,100.7657568,86.5759430
59.6828050,-0.0020460,130.1805987,100.5438701,86.4191018
59.8448430,0.0014582,130.0477059,100.4845841,86.4019491
59.8868080,0.0049358,129.9637716,100.4487624,86.3673468
59.9208060,0.0075333,129.6504479,100.2212077,86.0316689
59.9678050,0.0087111,129.5690924,99.9933472,85.8832192
60.1218050,0.0085243,129.4031523,99.7706744,85.6449935
60.1568040,0.0074053,129.5950610,99.9492806,85.7983039
60.1948180,0.0058420,129.7246089,100.0701351,85.8938245
60.2308050,0.0043116,129.8045186,100.1768512,85.9824154
60.3988050,0.0030804,129.9325447,100.2999150,86.0948122
60.4378070,0.0020189,129.9675562,100.3360781,86.1000762
60.4768130,0.0009258,129.8927617,100.2063393,85.9581124
60.5118090,-0.0001536,129.9728636,100.2010076,85.9481082
60.7108070,-0.0009229,130.0183883,100.0594888,85.9089277
60.7478070,-0.0010234,130.0699764,100.0550813,85.9206115
60.7868100,-0.0003744,130.0855578,100.0847266,85.9732186
60.8308040,0.0008050,130.2206337,100.2182170,86.1460545
60.8648130,0.0021708,130.1860194,100.2318231,86.1643669
61.0348170,0.0033224,130.1967690,100.1300293,86.0958800
61.0798050,0.0039411,130.2319111,100.1556137,86.1146412
61.1168050,0.0038911,130.3534028,100.3950512,86.3000371
61.1548040,0.0031199,130.4895612,100.6447471,86.4976738
61.3178060,0.0016441,130.7061812,100.9348018,86.7377287
61.3568050,-0.0003800,131.1249048,101.3418408,87.1454543
61.3908050,-0.0026724,131.3164722,101.5878272,87.4459848
61.4338050,-0.0048017,131.4620210,101.7117840,87.5989400
61.4688040,-0.0062408,131.5993448,101.7527589,87.6539135
61.6368050,-0.0066376,131.5506726,101.7067034,87.6127912
61.6768080,-0.0059251,131.5826097,101.5748248,87.6060942
61.7118060,-0.0042454,131.6782778,101.6042400,87.6645146
61.7478050,-0.0019315,131.7390396,101.5626589,87.6774996
61.9098070,0.0006137,131.7917269,101.6089821,87.7851525
61.9498090,0.0030958,131.6862361,101.4714221,87.7019816
61.9868080,0.0051925,131.2617536,101.0317989,87.1657503
62.0328040,0.0065864,131.3175255,100.9033444,87.1605915
62.1828080,0.0073145,131.3372334,100.8646232,87.1210575
62.2188120,0.0075339,131.2493776,100.7900984,87.0157214
62.2518070,0.0072815,131.1806684,100.6518937,86.8951293
62.2878040,0.0067519,131.2262026,100.6600346,86.9412801
62.4538060,0.0061944,131.2398479,100.6453760,86.9563648
62.4888050,0.0055868,131.2482556,100.6490299,86.9729918
62.5268060,0.0048153,131.3194900,100.7439315,87.0171418
62.5648060,0.0038466,131.3793846,100.8180635,87.0794549
62.7298080,0.0026294,131.4237764,100.9042094,87.1500734
62.7668070,0.0010895,131.4398685,100.9649043,87.1802268
62.8038060,-0.0007764,131.4008135,100.9422635,87.1518455
62.8448060,-0.0027840,131.3079710,100.8486850,87.0547249
63.0078080,-0.0046321,131.2409977,100.8043968,86.9983912
63.0528080,-0.0061227,131.2283989,100.8091149,86.9838692
63.0898050,-0.0072016,131.2154686,100.7957811,86.9502112
63.1308070,-0.0079207,131.1784287,100.8083773,86.9214754
63.3018090,-0.0084551,131.1711524,100.8502718,86.9249419
63.3398060,-0.0090128,131.2214929,100.9474372,86.9690678
63.3788090,-0.0096769,131.2971502,101.0310363,87.0418018
63.4218050,-0.0103658,131.3031275,101.0492364,87.0433410
63.4608080,-0.0108970,131.3054936,101.0482672,87.0550026
63.6228050,-0.0110452,131.3163684,101.0340270,87.0458797
63.6598280,-0.0105964,131.2208733,100.9044952,86.9683004
63.6978060,-0.0093972,131.2841905,100.8813958,87.0167992
63.7348040,-0.0074469,131.3211217,100.8684468,87.0203815
63.8938100,-0.0049702,131.3466625,100.8224752,86.9693672
63.9338040,-0.0023248,131.2352192,100.6602989,86.8006871
63.9658070,0.0001540,131.2423386,100.6125285,86.7741769
64.0028060,0.0021477,131.0112870,100.3798300,86.4777837
64.1718080,0.0034135,131.0180750,100.2790801,86.3883959
64.2058450,0.0039996,130.9282466,100.1637404,86.2760369
64.2438060,0.0041499,130.8297437,100.0054258,86.0922595
64.2808070,0.0040347,130.8594111,100.0424330,86.1024535
64.4398040,0.0037735,130.8813408,99.9941553,86.0614560
64.4798060,0.0035304,130.8201182,99.8635849,85.9338254
64.5128040,0.0033954,130.8328604,99.8085577,85.8819177
64.5498040,0.0033378,130.7650216,99.7209147,85.7632200
64.7098050,0.0032774,130.7385995,99.7053180,85.7142454
64.7508090,0.0031204,130.7946283,99.7732351,85.7811689
64.7838080,0.0027869,130.8297834,99.8264305,85.8457699
64.8218030,0.0022335,130.8919211,99.9095126,85.9274862
64.9988040,0.0014887,131.0215478,100.0629916,86.0787635
65.0408030,0.0006885,131.1722692,100.2615258,86.3049635
65.0828050,-0.0000062,131.3523921,100.4828987,86.5197188
65.1218050,-0.0005394,131.5416265,100.6923719,86.7452149
65.3228050,-0.0009200,131.7486107,100.9270944,87.0074349
65.3638050,-0.0011172,131.7992790,100.9719964,87.1010554
65.4078040,-0.0010637,131.7688421,100.9169247,87.0763375
65.4558060,-0.0007576,131.7040595,100.8608208,86.9960127
65.5018070,-0.0002725,131.5585536,100.6633525,86.8258038
65.6898040,0.0003377,131.4167677,100.4621177,86.6452241
65.7338050,0.0010258,131.2653913,100.2703079,86.4737005
65.7738090,0.0017137,131.1937435,100.1238115,86.3506974
65.8178050,0.0023638,131.1912054,100.1040369,86.3333658
65.8578060,0.0029574,131.1177672,100.0273701,86.2541974
66.0408070,0.0033824,131.0919966,99.9941995,86.1974338
66.0888050,0.0029467,130.2683361,99.7130572,85.2935051
66.1278600,0.0005915,130.4481834,99.8635291,85.4646317
66.1688050,-0.0036735,130.5061349,99.8128949,85.4269483
66.2148050,-0.0086311,130.6375255,99.7996645,85.4925579
66.4168080,-0.0129170,130.7608989,99.7711439,85.5415820
66.4668050,-0.0152132,130.9688438,99.9407528,85.6766953
66.5058040,-0.0146231,131.1872659,100.2502369,85.9455767
66.5448220,-0.0116669,131.5178415,100.5942851,86.3145765
66.7248200,-0.0078567,131.7047963,100.8289434,86.5728703
66.7678200,-0.0045810,131.8617428,101.0638982,86.8041987
66.8108220,-0.0025468,132.0178795,101.2195684,86.9928428
66.8568200,-0.0015804,132.2330465,101.4370055,87.2041277
67.0598280,-0.0011547,132.4927270,101.7774894,87.4867415
67.0998210,-0.0010368,132.7151346,102.1197890,87.7612814
67.1448250,-0.0012100,132.7615018,102.1897864,87.8439456
67.1828180,-0.0015438,132.7574392,102.1326419,87.8128086
67.2228200,-0.0018147,132.6805631,102.0281126,87.7473514
67.3958210,-0.0017966,132.7289214,102.0584050,87.7836777
67.4358200,-0.0012438,132.8873617,102.2084388,87.9876247
67.4748200,-0.0000086,132.9458871,102.2468983,88.0570495
67.5198190,0.0016900,132.8826169,102.2630647,88.0428350
67.7048250,0.0033188,132.8237348,102.2442393,88.0335497
67.7458240,0.0044999,132.6246893,102.0430850,87.8998172
67.7818240,0.0051965,132.4399023,101.9003769,87.7748164
67.8238210,0.0054497,132.4115835,101.9525760,87.8229810
67.8668190,0.0053316,132.4198249,101.9932563,87.8850061
68.0658230,0.0050783,132.5693723,102.1547059,88.0935158
68.1058220,0.0048594,132.8164732,102.4327971,88.3429683
68.1418200,0.0045664,132.9978834,102.7024643,88.5929840
68.1888200,0.0040662,133.1843183,102.9381523,88.8461516
68.3728550,0.0034113,133.2830206,103.0678662,88.9917117
68.4148240,0.0027534,133.3261417,103.0855278,89.0913671
68.4518210,0.0021819,133.1492004,103.0125629,88.9440279
68.5018210,0.0017337,133.0713872,102.8728815,88.8576926
68.5368240,0.0015643,132.9407675,102.6943132,88.7351986
68.7128220,0.0017781,133.0060395,102.8107706,88.8347888
68.7558200,0.0021454,132.8977263,102.7635998,88.7761133
68.7933370,0.0023561,132.7781945,102.6959732,88.7066179
68.8348660,0.0023095,132.7199969,102.6840025,88.6840092
69.0208560,0.0019390,132.6576150,102.6476705,88.6581140
69.0668570,0.0012307,132.6194258,102.6024168,88.6206297
69.1158620,0.0003823,132.5646885,102.5721335,88.5807666
69.1578550,-0.0003831,132.6105599,102.6286296,88.6057264
69.2028550,-0.0009705,132.6587650,102.6922163,88.6584513
69.4038580,-0.0013674,132.7371886,102.7767297,88.7558501
69.4498540,-0.0015425,132.7139833,102.6534747,88.6880475
69.4888560,-0.0013334,132.6854753,102.5273353,88.6698285
69.5348570,-0.0005183,132.7254028,102.5503110,88.7424857
69.6248550,0.0009980,132.8048037,102.5346612,88.8079539
69.8208540,0.0031083,132.7419432,102.4455327,88.7258767
69.8568540,0.0053901,132.7944103,102.5571687,88.7995433
69.9058550,0.0071540,132.8812601,102.6881051,88.9228814
69.9478540,0.0078353,132.9848594,102.8523094,89.0483769
69.9898540,0.0072623,133.0772018,102.9662332,89.1582016
70.1708570,0.0056114,133.0550342,102.9757431,89.1378245
70.2068550,0.0033237,133.0139629,102.9447776,89.0843147
70.2468670,0.0009750,133.0523531,102.9371294,89.0777872
70.2828560,-0.0008941,133.2707403,103.0487962,89.2333963
70.3208580,-0.0019064,133.2864566,103.0013773,89.2251798
70.4888530,-0.0019963,133.3818688,103.0845599,89.3052059
70.5288640,-0.0014430,133.3751029,103.0963987,89.2451622
70.5648560,-0.0007990,133.5250010,103.3728360,89.4148293
70.5998530,-0.0008040,133.3631188,103.3510322,89.2252809
70.7698560,-0.0020183,133.4798995,103.4534928,89.3040741
70.8058560,-0.0043924,133.6550236,103.6335114,89.4339803
70.8418570,-0.0073522,133.8264309,103.8265977,89.6035572
70.8818550,-0.0100831,133.9756319,103.8832763,89.6707080
70.9208530,-0.0117876,134.1281181,104.1106269,89.8693001
71.0848540,-0.0121489,134.1846833,104.2444804,89.9814927
71.1198540,-0.0114761,134.1146761,104.2138914,89.9473848
71.1578530,-0.0102463,133.8258007,103.9502561,89.7321547
71.1968590,-0.0087611,133.5986912,103.7284246,89.5969773
71.3658530,-0.0071064,133.3739341,103.5386500,89.5040160
71.4048540,-0.0051621,133.2495184,103.3777218,89.3992613
71.4488570,-0.0028115,133.2658896,103.3864944,89.4213708
71.4908530,-0.0002864,133.3887359,103.7377234,89.7242381
71.6848550,0.0018126,133.3710651,103.8729373,89.8597371
71.7178550,0.0029758,133.4722695,104.0269830,90.0498376
71.7568540,0.0031445,133.4460340,104.0472111,90.1397036
71.7898560,0.0026517,133.2890214,103.9044287,90.0687672
71.8248560,0.0021046,132.9742401,103.5835515,89.8265655
71.9948570,0.0021435,132.8838125,103.5584553,89.8459884
72.0358540,0.0030098,132.6906957,103.4231092,89.7763315
72.0748540,0.0043903,132.7495856,103.6131178,89.9563455
72.1178530,0.0056467,132.7853787,103.7394429,90.0649720
72.1548540,0.0062128,133.2084739,104.1731304,90.4872091
72.3208990,0.0058435,133.5307135,104.6423326,90.9257642
72.3628580,0.0045503,133.7585970,104.9985597,91.2494973
72.3928540,0.0025070,133.8920982,105.2716803,91.4680395
72.4368540,-0.0000377,133.9586743,105.4254323,91.4695459
72.4728540,-0.0028536,133.7662688,105.2552611,91.2784176
72.6278580,-0.0056945,133.4704507,105.0508080,90.9939631
72.6608580,-0.0084204,133.0981322,104.8602626,90.6323492
72.7058550,-0.0109805,132.9644869,104.7239570,90.4985011
72.7378530,-0.0130458,132.7863570,104.5394079,90.3264212
72.8999260,-0.0141204,132.7306184,104.4274568,90.2697532
72.9348600,-0.0139663,132.7201606,104.4460593,90.3108227
72.9748550,-0.0125397,132.7802289,104.5274411,90.4453844
73.0148600,-0.0099041,132.8245987,104.6002279,90.5721997
73.1998970,-0.0064307,133.1153270,104.9319152,90.9857739
73.2368530,-0.0026877,133.2484608,105.0282918,91.1419607
73.2728550,0.0008792,133.5183942,105.2681524,91.4330984
73.3098550,0.0040068,133.5472041,105.3454966,91.4886106
73.3428530,0.0064918,133.5745775,105.4097802,91.5518658
73.5188540,0.0082026,133.4907400,105.3384106,91.4841079
73.5538530,0.0091688,133.4186210,105.2307982,91.4292662
73.5898560,0.0095773,133.3603575,105.0636321,91.2823611
73.6228590,0.0097916,133.2982832,104.7986316,91.0662571
73.7878570,0.0102332,133.1217499,104.5871965,90.8485379
73.8198840,0.0110780,133.0884681,104.5178990,90.8177390
73.8598540,0.0121329,133.0446818,104.5317627,90.8090912
73.8978740,0.0129673,133.0619566,104.5136994,90.7856079
74.0668550,0.0131002,133.2279918,104.7022126,90.8816481
74.0998560,0.0121600,133.3921020,104.9863374,91.1216291
74.1368570,0.0100551,133.4677117,105.1591248,91.2278293
74.1708540,0.0070862,133.5179639,105.1213749,91.1877234
74.3288540,0.0038944,133.4703883,105.0065236,91.1014917
74.3668550,0.0012412,133.2272657,104.6315822,90.8198855
74.4038560,-0.0001900,132.8284718,104.1198210,90.3821765
74.4428540,0.0000021,132.4075237,103.5989508,89.9309311
74.6058560,0.0018093,132.3047366,103.2861026,89.7385440
74.6428600,0.0048818,132.2992911,103.1160511,89.6654958
74.6748530,0.0085481,132.2619652,103.0408252,89.6036694
74.7188530,0.0119291,132.4196142,103.2408770,89.8529774
74.8788550,0.0143895,132.3769691,103.1572369,89.8657523
74.9168540,0.0157366,132.3980767,103.1707233,89.9453864
74.9538520,0.0158883,132.7049071,103.6175934,90.3973440
74.9898530,0.0148469,132.8853219,103.8391257,90.6700098
75.1558560,0.0123790,132.3573417,103.9032917,90.1485182
75.1978560,0.0078792,132.5394615,104.0655918,90.3491229
75.2378530,0.0015368,132.5936655,104.0721797,90.4069203
75.2838560,-0.0054004,132.7791421,104.1924186,90.5874661
75.4508520,-0.0116190,132.8248618,104.2068951,90.6387647
75.4963800,-0.0158197,132.8274267,104.1176746,90.6072612
75.5339060,-0.0168127,132.9871608,104.0803369,90.5709952
75.5698950,-0.0148284,133.1553520,104.3381285,90.7864687
75.7418950,-0.0114780,133.2178731,104.4030260,90.8662430
75.7808980,-0.0082641,133.1769622,104.3418686,90.8193818
75.8188950,-0.0059163,133.0765012,104.1952723,90.7004385
75.8578940,-0.0044878,133.2935311,104.2122017,90.7466369
76.0268970,-0.0035305,133.3436271,104.0880078,90.6490497
76.0688970,-0.0024184,133.4117401,104.1043844,90.7053408
76.1039000,-0.0008532,133.3861138,104.0636737,90.6820409
76.1468950,0.0010202,133.4557146,104.0353372,90.6423969
76.1838970,0.0028540,133.3710091,103.8583774,90.4855023
76.3569030,0.0042083,133.5039437,104.0978049,90.6752112
76.3918960,0.0046757,133.5892201,104.2490820,90.8322030
76.4269040,0.0041540,133.5935042,104.2759443,90.8313563
76.4658950,0.0028407,133.5814393,104.3568188,90.8982905
76.5039010,0.0010048,133.4745541,104.2524031,90.7960559
76.6668950,-0.0010464,133.4294264,104.2535257,90.7694875
76.6998960,-0.0030416,133.3309611,104.3181544,90.7759067
76.7358950,-0.0049994,133.2264846,104.3892592,90.7274154
76.7789020,-0.0070661,133.1642178,104.3308594,90.6558183
76.9368990,-0.0091543,133.0651822,104.2364807,90.5618290
76.9718950,-0.0109725,132.9214324,104.0544724,90.4221987
77.0108970,-0.0121459,132.7107390,103.8481296,90.2319967
77.0529030,-0.0122942,132.5277122,103.6568537,90.0504603
77.2249330,-0.0112575,132.2444221,103.3558930,89.7606687
77.2669000,-0.0092914,132.0268897,103.1349857,89.5540860
77.3048970,-0.0069272,131.9819778,103.1064093,89.5503963
77.3508990,-0.0046648,131.9693715,103.1429729,89.6189175
77.3908990,-0.0027686,131.9737748,103.1852400,89.6980221
77.5599020,-0.0012168,131.9680805,103.1257544,89.7013234
77.5929000,0.0001637,131.8730960,103.0503453,89.6556367
77.6319130,0.0014488,131.9277760,103.1543178,89.7448389
77.6679040,0.0025317,131.9742442,103.2469480,89.8198503
77.8248990,0.0032584,132.0759949,103.3789576,89.9323588
77.8659390,0.0035276,132.1153221,103.4021025,89.9679341
77.8998990,0.0033355,132.1463125,103.4249234,89.9940569
77.9348970,0.0028271,132.1345215,103.4198668,89.9802028
78.0978980,0.0022449,132.1865497,103.4722594,90.0204632
78.1338990,0.0018012,132.2060870,103.4883111,90.0352734
78.1718940,0.0015671,132.2029240,103.4894226,90.0242760
78.2098960,0.0014311,132.1213571,103.4521040,89.9683977
78.3759340,0.0012484,132.1900544,103.5097743,90.0379826
78.4168990,0.0010128,132.1685520,103.4725218,90.0034439
78.4529000,0.0008017,132.0905697,103.4019474,89.9390331
78.4878960,0.0006523,131.9736837,103.3147790,89.8442355
78.5228960,0.0005660,131.8950133,103.2598110,89.7886437
78.6828970,0.0005230,131.7721713,103.1724090,89.6948163
78.7159430,0.0005038,131.9077097,103.2749218,89.8544877
78.7518940,0.0005992,131.7960185,103.0306371,89.6347892
78.7918950,0.0010407,131.8766861,102.9437517,89.6120667
78.9558940,0.0021050,131.9312654,102.7500718,89.4502111
78.9858960,0.0039153,131.9585180,102.6389919,89.3217254
79.0258960,0.0062202,131.9716394,102.5937846,89.2424590
79.0708980,0.0084667,132.0262133,102.5256650,89.1494761
79.2338950,0.0101013,132.1067690,102.6190159,89.2483350
79.2688980,0.0107371,132.2278716,102.7383975,89.3722842
79.3078970,0.0102425,132.2675941,102.8170632,89.4252165
79.3438950,0.0088069,132.3007670,102.8898965,89.4839915
79.5068990,0.0068268,132.3082236,102.9063329,89.5084897
79.5479020,0.0046805,132.3355516,102.9774655,89.5716333
79.5849010,0.0026636,132.3278563,102.9328851,89.5933209
79.6268940,0.0010666,132.3186045,102.9109204,89.6173314
79.7979010,0.0001337,132.5448176,103.0130115,89.7308942
79.8428950,-0.0000935,132.6726286,103.0744603,89.7605166
79.8778940,0.0001713,132.8814691,103.2523044,89.9005726
79.9198970,0.0005977,133.2271852,103.5089132,90.1540578
79.9538940,0.0008457,133.4176290,103.7650355,90.3854153
80.1259380,0.0005905,133.5599371,103.9790803,90.5562427
80.1669020,-0.0003358,133.6336178,104.1191844,90.6899922
80.2108950,-0.0017714,133.5830419,104.0490511,90.6199214
80.2519000,-0.0033773,133.4338092,103.9878873,90.5702532
80.2878960,-0.0048374,133.4056823,103.8982356,90.5265620
80.4538990,-0.0058136,133.3032417,103.8103030,90.4641229
80.4889390,-0.0060693,133.3185895,103.8204367,90.4897611
80.5258960,-0.0056802,133.3471664,103.9224891,90.5905360
80.5568930,-0.0049684,133.3061598,103.9646998,90.6337289
80.7208970,-0.0043064,133.2879095,104.0174758,90.6901120
80.7549040,-0.0040492,133.3009222,104.1493695,90.7571468
80.7948950,-0.0045115,133.1758715,104.1944314,90.7139962
80.8408960,-0.0057692,133.2421825,104.3084889,90.8336631
81.0018950,-0.0074197,133.2435855,104.2070446,90.7870969
81.0438980,-0.0087346,133.3164282,104.1790065,90.8362607
81.0868950,-0.0090748,133.3555337,104.1619185,90.8581909
81.1268990,-0.0081024,133.2728837,104.0533559,90.7619998
81.3109050,-0.0058819,133.1919350,103.9466670,90.6572638
81.3489030,-0.0029595,133.1343646,103.9171672,90.6455884
81.3848990,-0.0001340,133.0026075,103.7547377,90.5083766
81.4228970,0.0020153,132.9155505,103.6343286,90.4200832
81.4608990,0.0034088,132.9203556,103.5615498,90.3991750
81.6648980,0.0042933,132.8875645,103.5482250,90.3658866
81.7048990,0.0048673,132.7258381,103.4251003,90.2278947
81.7398970,0.0051635,132.8243325,103.5418442,90.3322776
81.7778930,0.0051429,133.0284299,103.7429104,90.5410959
81.8118950,0.0047152,133.0377334,103.7901665,90.5428808
81.9719040,0.0038189,133.0617085,103.8131874,90.5658260
82.0068970,0.0026082,133.0532111,103.8085724,90.5405317
82.0499030,0.0013668,133.0362642,103.8630582,90.6217780
82.0848970,0.0002231,133.0770357,104.0655604,90.7964294
82.2469520,-0.0009132,133.0238246,104.0959644,90.7722651
82.2858980,-0.0021762,133.0255484,104.1855287,90.8228973
82.3188970,-0.0036074,133.0898137,104.2001258,90.7895156
82.3558960,-0.0051295,133.1630345,104.2358249,90.7739967
82.5254100,-0.0065813,133.0518881,104.1849442,90.6877543
82.5614090,-0.0077753,132.9953270,104.1911518,90.6530852
82.5944090,-0.0085796,133.0842606,104.3205807,90.7451028
82.6334120,-0.0089881,133.0510708,104.3294464,90.7376875
82.6704060,-0.0090847,133.0467349,104.3480801,90.7566206
82.8394100,-0.0089299,133.0492253,104.3538950,90.7467436
82.8774070,-0.0085840,132.9144120,104.2601137,90.5366428
82.9174070,-0.0081680,132.8713523,104.2352301,90.4817386
82.9524100,-0.0077265,132.8142664,104.1671889,90.4173886
83.1184090,-0.0071887,132.6847852,104.0439235,90.3069510
83.1564210,-0.0064885,132.6468822,104.0019750,90.2768096
83.1904070,-0.0054627,132.7005091,103.9289188,90.2617032
83.2274070,-0.0037888,132.8026126,103.9338388,90.3203112
83.2684090,-0.0012938,132.8669285,103.9093774,90.3689097
83.4414060,0.0018895,132.8100795,103.7655068,90.2869684
83.4774070,0.0054216,133.0793445,103.9886150,90.4939948
83.5174100,0.0088930,133.2582055,104.0125018,90.6049268
83.5544060,0.0120463,133.3162047,103.8939414,90.5711889
83.7174130,0.0148014,132.8832967,103.4507664,90.2202379
83.7564450,0.0170794,132.3699885,103.0044478,89.8716477
83.7944090,0.0184050,131.5316254,102.5578406,89.0100817
83.8364110,0.0182217,130.6972222,101.3674786,88.0762371
84.0364070,0.0170078,129.6565586,99.8499993,86.7544532
84.0774080,0.0160461,128.2937481,98.1471841,85.2935780
84.1104060,0.0163686,126.7702717,96.3205919,83.6353262
84.1464060,0.0187900,125.6275362,94.9424530,82.4477569
84.3134060,0.0237117,124.3355278,93.3135337,80.9355790
84.3554080,0.0301262,123.4482385,92.1539936,79.9183405
84.3894140,0.0361233,122.9143733,91.4206780,79.2851313
84.4274080,0.0402067,122.5036230,90.8484712,78.7554323
84.4644240,0.0417341,122.0758548,90.2231967,78.1672121
84.6254080,0.0407365,121.5292876,89.5723854,77.4688292
84.6594090,0.0375721,121.1381704,89.0070601,76.9357338
84.6964080,0.0327774,120.9254365,88.6534923,76.5494611
84.7294090,0.0269903,120.7290907,88.3322402,76.2587857
84.9004150,0.0211004,120.1834494,87.9319427,76.3202501
84.9394430,0.0159979,119.8323511,87.8139367,76.1603260
84.9804080,0.0118595,119.7000745,87.6108508,75.9658597
85.0214060,0.0083602,119.6768649,87.4713877,75.8389607
85.1954080,0.0051905,119.5760169,87.3385405,75.6562913
85.2444100,0.0018857,119.6313853,87.2441818,75.6082597
85.2854100,-0.0019484,119.5030958,87.1178507,75.4602884
85.3254070,-0.0061223,119.5232013,87.1243976,75.4441916
85.3714060,-0.0102831,119.5212604,87.1483437,75.3758648
85.5359250,-0.0142954,119.5661734,87.1338078,75.3098891
85.5729240,-0.0181674,119.7256376,87.3083814,75.3444813
85.6099240,-0.0220516,119.8072566,87.4206645,75.3916623
85.6499290,-0.0259577,119.8725694,87.5001000,75.4221761
85.6869230,-0.0296059,119.8866353,87.5271009,75.3830187
85.8589230,-0.0326648,120.0621693,87.6905986,75.4789354
85.8939240,-0.0349337,120.1404931,87.7764955,75.4636043
85.9309220,-0.0363320,120.2969215,87.9156319,75.5376923
85.9699240,-0.0368824,120.4822952,88.0919554,75.6661974
86.1349240,-0.0367226,120.5839028,88.2390015,75.7459642
86.1669300,-0.0360520,120.6958409,88.3779657,75.8152088
86.2059250,-0.0350213,120.7911827,88.5155784,75.9025701
86.2399220,-0.0336032,120.8992728,88.5439682,75.9499194
86.4009260,-0.0317014,120.9552476,88.6475807,76.0070365
86.4399220,-0.0293991,120.9166047,88.7187986,76.0172050
86.4769230,-0.0269110,120.8763788,88.7589718,76.0139478
86.5149250,-0.0243556,120.8832576,88.7483049,75.9930767
86.6729260,-0.0218047,120.6964020,88.6304718,75.8431770
86.7119240,-0.0193385,120.7399636,88.6292728,75.8746140
86.7459220,-0.0167739,120.8115806,88.5981095,75.8910740
86.7789250,-0.0137086,120.8367130,88.5409911,75.8668941
86.9369290,-0.0101165,120.7418661,88.5323402,75.7007873
86.9709520,-0.0066584,120.4579518,88.4148718,75.3776520
87.0159250,-0.0040546,120.3855531,88.2861766,75.3127863
87.0529230,-0.0024459,120.2752969,88.1502036,75.2023732
87.2359290,-0.0016466,120.1163129,88.0476233,75.0833058
87.2789260,-0.0013266,120.0301390,87.9885952,75.0331024
87.3169260,-0.0008287,120.0042882,88.0303876,75.0710116
87.3589230,0.0004010,119.9458876,87.9729977,75.0546981
87.3999310,0.0022913,119.8388722,87.8290338,74.9491771
87.5689260,0.0044858,119.5580992,87.5405883,74.7254896
87.6079590,0.0067636,119.3818045,87.3531565,74.5635806
87.6449260,0.0090571,119.3963124,87.2800376,74.5545638
87.6799230,0.0113025,119.3994633,87.2856674,74.5087401
87.8489270,0.0132203,119.4257747,87.3428806,74.5357334
87.8879260,0.0144116,119.5333932,87.4870411,74.6434045
87.9229230,0.0146083,119.5884759,87.5946793,74.6878020
87.9589230,0.0137488,119.5733228,87.5819057,74.6636099
88.1219250,0.0120608,119.5287476,87.5323572,74.6279442
88.1589240,0.0100986,119.5499336,87.5147928,74.6574032
88.1959270,0.0084919,119.4441859,87.3888769,74.5789673
88.2359230,0.0076416,119.3794982,87.3390648,74.5554333
88.2719230,0.0076126,119.3906683,87.3717825,74.6215028
88.4369240,0.0081488,119.3704104,87.4212175,74.6955217
88.4749220,0.0088088,119.3940515,87.4368363,74.7119033
88.5109240,0.0091987,119.3496914,87.3611846,74.6591354
88.5479240,0.0091358,119.3709659,87.3677679,74.6433867
88.7029230,0.0086623,119.4374932,87.3396821,74.6299027
88.7409280,0.0079515,119.4145939,87.3066356,74.5714274
88.7739230,0.0070876,119.4938998,87.4160279,74.5903484
88.8079250,0.0059553,119.4587611,87.4369589,74.5707300
88.9629250,0.0043595,119.3802573,87.4649990,74.4818822
89.0009250,0.0019083,119.2158834,87.5555014,74.2380382
89.0439230,-0.0018323,119.3657510,87.7508943,74.3767943
89.0789250,-0.0065949,119.4482668,87.8392497,74.4429176
89.2529280,-0.0114508,119.5069073,87.9068313,74.4963729
89.2899270,-0.0154995,119.4995778,87.9015319,74.4698771
89.3259240,-0.0179793,119.4973804,87.9059630,74.4561710
89.3689290,-0.0183820,119.5011851,87.9130974,74.4587305
89.4019420,-0.0168856,119.5373778,87.9032974,74.4856255
89.5589260,-0.0142032,119.5273597,87.8760437,74.4475262
89.5969220,-0.0110782,119.6599747,87.9856813,74.5592093
89.6369270,-0.0080314,119.7409314,88.0869192,74.6395277
89.6729220,-0.0053373,119.8235689,88.1648895,74.6965226
89.8366340,-0.0031412,119.8117517,88.1593851,74.6609094
89.8826350,-0.0014995,119.8332370,88.1596939,74.6613881
89.9216250,-0.0002726,119.8949882,88.1712520,74.7327539
89.9646270,0.0009130,120.1834858,88.3112864,74.9562420
90.1516250,0.0024228,120.4901841,88.5536596,75.1700514
90.1866240,0.0043264,120.6942479,88.6920644,75.3015080
90.2246250,0.0064623,120.9170852,88.8328259,75.4561182
90.2596270,0.0085906,121.1637563,88.9955357,75.6322437
90.2966250,0.0103749,121.2723950,89.0764591,75.7229438
90.4626340,0.0115202,121.3815437,89.1600766,75.8056860
90.5006400,0.0119432,121.4414960,89.2581279,75.8371489
90.5356290,0.0116384,121.4966217,89.2969372,75.7977828
90.5751470,0.0104776,121.9173313,89.8533038,76.1861532
90.6091450,0.0082258,122.5578316,90.6393496,76.8391729
90.7691500,0.0048125,123.3315277,91.5478717,77.6815324
90.8041430,0.0004929,124.3066907,92.6860393,78.6907386
90.8421460,-0.0043460,125.2459837,93.8680880,79.7528915
90.8791450,-0.0092707,126.1655440,94.9629470,80.7803021
91.0501480,-0.0138320,126.9930522,96.0492313,81.6797639
91.0851440,-0.0176702,127.4668761,96.5234541,82.2150456
91.1201470,-0.0203616,127.7115406,96.7374970,82.4451633
91.1551440,-0.0213956,127.8642574,96.7975325,82.5640520
91.3211480,-0.0203878,128.0263373,96.7546234,82.6077660
91.3681480,-0.0171164,128.1147894,96.6142846,82.5591405
91.4031450,-0.0117710,128.1193402,96.5663371,82.5087045
91.4441430,-0.0052768,128.2687629,96.6776377,82.6324763
91.6111450,0.0012547,127.7595891,96.0026657,82.0776506
91.6521530,0.0071749,127.3538110,95.3630200,81.5222752
91.6871450,0.0122838,126.8706978,94.5686876,80.8700277
91.7221450,0.0168895,126.5466033,93.8147951,80.3558483
91.7581430,0.0217035,126.3604637,93.3710456,80.0771452
91.9111450,0.0271497,126.2312001,93.0025889,79.8889666
91.9501460,0.0329954,126.0249126,92.5915814,79.6329576
91.9961420,0.0385830,125.9134012,92.3079422,79.4453987
92.0381470,0.0429763,126.2730537,92.5120171,79.6402251
92.2241470,0.0452332,126.8892036,92.9219409,80.0210267
92.2631680,0.0448601,127.7813249,93.7427779,80.7700411
92.2961440,0.0418121,128.8573868,94.8809244,81.8208983
92.3361460,0.0363208,129.8372662,96.0113586,82.8918141
92.5011470,0.0289686,130.3735232,96.6728042,83.5557786
92.5401460,0.0201301,130.7425996,97.3665590,83.5507050
92.5761450,0.0097952,130.4898180,97.2491040,83.5124575
92.6141440,-0.0012257,130.1993095,97.0423415,83.4387933
92.7781450,-0.0112892,129.8071530,96.7276633,83.2465242
92.8131450,-0.0190439,129.1118027,96.0224487,82.7526784
92.8491590,-0.0233260,128.4957897,95.2802726,82.2038794
92.8881460,-0.0232570,127.7523649,94.5144410,81.5413950
92.9221450,-0.0194618,127.2087176,94.0022740,81.1348849
93.0971450,-0.0138110,127.1202440,93.9459540,81.1614023
93.1361460,-0.0080904,127.2395405,94.0280790,81.3334422
93.1701450,-0.0035010,127.2193277,93.9730293,81.3290037
93.2051520,-0.0005505,127.3439856,94.0336873,81.4300377
93.3618740,0.0009364,127.3970993,94.0142552,81.4579740
93.3968700,0.0014800,127.2743407,93.8601677,81.3164675
93.4408730,0.0015185,127.0609547,93.6497787,81.1490698
93.4748690,0.0012169,126.9714360,93.6564145,81.1320449
93.6441380,0.0005079,126.8415393,93.5578262,81.0036588
93.6801710,-0.0007124,126.7176347,93.4678872,80.9110017
93.7192160,-0.0023884,126.6384258,93.4073530,80.8822301
93.7581370,-0.0043137,126.1712777,93.0572785,80.5463306
93.9448410,-0.0062423,126.1449778,93.0543690,80.5497268
93.9868430,-0.0079247,126.0003237,92.9544920,80.4206546
94.0278440,-0.0091750,125.9360330,92.8476048,80.3405172
94.0708400,-0.0099493,125.9513668,92.8259892,80.2906856
94.2498390,-0.0102893,126.2517008,93.0049089,80.4945156
94.2878400,-0.0101565,126.6432022,93.2720928,80.7985799
94.3248380,-0.0094722,126.8734960,93.4910028,81.0218650
94.3618400,-0.0082907,127.2921379,93.8324687,81.3921584
94.3998400,-0.0067401,127.5069910,93.9687532,81.5856681
94.5721330,-0.0049386,127.6851415,94.0954199,81.7450021
94.6101300,-0.0030966,127.5746344,93.9412379,81.6111346
94.6451290,-0.0013849,127.2964882,93.5842972,81.3521034
94.6811290,0.0002842,127.0113832,93.1938907,81.0480150
94.8451300,0.0020776,126.8039059,92.8976534,80.8510021
94.8821300,0.0040522,126.4141411,92.4891511,80.5509123
94.9171310,0.0061766,126.0936442,92.1349225,80.2594982
94.9591290,0.0082619,125.7684916,91.8644540,80.0297891
94.9961280,0.0098407,125.5061753,91.6952393,79.8057896
95.1741310,0.0099645,125.2241994,91.7793232,79.4487295
95.2231330,0.0076091,125.2937424,91.9012010,79.5473575
95.2621300,0.0027498,125.4059812,92.0521899,79.6573416
95.2991620,-0.0036372,125.5688581,92.2074090,79.7679812
95.5008630,-0.0103226,125.5982745,92.2689393,79.8066918
95.5478590,-0.0158840,125.5621245,92.2594460,79.8201870
95.5866970,-0.0190054,125.6687952,92.3163281,79.8977822
95.6296970,-0.0194082,125.7947767,92.4021549,80.0145792
95.8252150,-0.0178502,125.8020526,92.4530902,80.0279270
95.8679980,-0.0153647,125.7502085,92.4143427,79.9859364
95.9049960,-0.0127590,125.8960631,92.5340063,80.0918483
95.9489970,-0.0104928,126.1403968,92.7459933,80.2761723
95.9899970,-0.0088276,126.2676541,92.9283193,80.4010509
96.1789970,-0.0078170,126.4324419,93.0875239,80.5573400
96.2190030,-0.0071507,126.4001586,92.9603540,80.4996901
96.3039960,-0.0063371,126.3967223,92.8989349,80.4749556
96.3680010,-0.0050506,126.4235008,92.8272677,80.4424358
96.5510000,-0.0032024,126.6119632,92.9971937,80.6019900
96.5908620,-0.0009431,126.9229729,93.2887943,80.8514485
96.6288640,0.0013383,127.2035326,93.5570188,81.1514459
96.6768630,0.0032139,127.5129142,93.8869954,81.4989130
96.7128610,0.0044346,127.6083942,94.0430531,81.6953226
96.8848670,0.0049979,127.8013135,94.2644216,81.9320966
96.9228640,0.0051988,127.6171117,94.0528938,81.8174171
96.9668650,0.0054930,127.1707672,93.6165545,81.4639065
97.0078660,0.0062311,126.5548891,92.9138144,80.9001312
97.1858660,0.0076366,126.0130851,92.2944325,80.4172322
97.2248640,0.0098509,125.6263081,91.8379673,80.1367935
97.2618620,0.0127977,125.5852081,91.7297278,80.1099933
97.3062040,0.0160305,125.6265921,91.7956612,80.2169034
97.4812280,0.0187239,125.6107196,91.9465204,80.2674227
97.5382050,0.0199973,125.7240763,92.0581551,80.4261303
97.5772090,0.0194314,125.9033757,92.1923746,80.5422437
97.6158040,0.0172073,125.9719015,92.2338773,80.6586290
97.7888030,0.0139287,125.8074142,92.1103516,80.5425839
97.8288070,0.0104793,125.6152253,91.8778325,80.3881271
97.8688060,0.0077308,125.2844797,91.4741196,80.0270427
97.9088050,0.0060912,125.3225154,91.3794417,79.9874354
97.9478030,0.0054260,125.3147538,91.2609815,79.8731331
98.1608050,0.0053194,125.5441280,91.3458466,79.9374931
98.2108040,0.0053310,125.7280107,91.4256128,80.0026040
98.2568040,0.0051452,125.9120272,91.5101546,80.1209637
98.2948110,0.0046096,126.0567863,91.5938818,80.2099510
98.4704360,0.0037119,126.2002811,91.6482796,80.2713183
98.5064320,0.0025374,126.2602386,91.6982800,80.3013269
98.5494310,0.0011983,126.4008076,91.8522898,80.4546828
98.5914300,-0.0002487,126.4926915,91.9146603,80.5058112
98.7614800,-0.0017463,126.4896070,91.8449847,80.4810719
98.7994770,-0.0031427,126.3155129,91.6692894,80.3551826
98.8445140,-0.0041834,126.2170522,91.5372204,80.3340599
98.8865200,-0.0045673,125.9240812,91.2701151,80.1669922
99.0695140,-0.0041295,125.8506643,91.1828831,80.1393325
99.1145130,-0.0030057,125.7826169,91.1350680,80.1476143
99.1565140,-0.0015898,125.7800464,91.1653772,80.1914328
99.2035170,-0.0003837,125.8193555,91.1748193,80.1933425
99.3875260,0.0001926,125.9482537,91.2747849,80.3011956
99.4285160,-0.0000389,125.9879190,91.3367877,80.3487566
99.4685230,-0.0010198,126.0872826,91.4487443,80.4460821
99.5095170,-0.0025383,126.1356654,91.5225964,80.5050917
99.5475160,-0.0043208,126.2392501,91.6479913,80.5923862
99.7475360,-0.0063317,126.2971501,91.8510734,80.5904986
99.7955280,-0.0088019,126.5730991,92.1742490,80.8500405
99.8335290,-0.0117455,126.7376173,92.4037762,81.0566116
99.8785280,-0.0148714,126.9565767,92.7173461,81.3170429
99.9235330,-0.0178983,127.3038123,93.2000634,81.7501628
100.1205280,-0.0204901,127.6738655,93.6936087,82.2232588
100.1575310,-0.0221839,127.8335938,93.9391334,82.4742695
100.1945290,-0.0227364,127.7451519,93.9181803,82.4830401
100.2355290,-0.0221939,127.4472879,93.6000821,82.2055399
100.2725380,-0.0205862,127.0972583,93.1752310,81.8561947
100.4475320,-0.0178717,126.6455755,92.6809551,81.4327778
100.4885300,-0.0141042,126.1163704,92.1251094,80.9810848
100.5285270,-0.0094903,125.5518086,91.5574953,80.5320573
100.5655270,-0.0043853,125.1186058,91.1831761,80.2367810
100.7416230,0.0006819,124.4900774,90.6430261,79.7613415
100.7786220,0.0050833,123.8749259,90.1325165,79.2366679
100.8146200,0.0082851,123.1946053,89.5076553,78.6232670
100.8516250,0.0099955,122.8107992,89.2300923,78.3360648
100.8826210,0.0102365,122.4891530,88.8957369,78.0150992
101.0466290,0.0093615,122.3660829,88.7260470,77.8274409
101.0806230,0.0079334,122.3110009,88.6154997,77.7177171
101.1136230,0.0065119,122.3600672,88.6176224,77.7143796
101.1536230,0.0054396,122.4549308,88.6817367,77.7576332
101.3146210,0.0047346,122.5856632,88.8345551,77.8708460
101.3616200,0.0041621,122.8689029,89.1264386,78.1283986
101.3986200,0.0034887,123.2034542,89.4049135,78.4048311
101.4416210,0.0026359,123.3254779,89.4744857,78.4309505
101.5976420,0.0014897,123.4493809,89.6895331,78.4808220
101.6363190,-0.0002569,122.7425837,89.1907416,77.8154477
101.6728740,-0.0031907,119.1726010,86.9343178,75.4106628
101.7078770,-0.0082392,117.9736354,87.1953525,75.6023995
101.8745590,-0.0145165,143.0034371,111.9574399,101.9925567
101.9085580,-0.0151292,129.4735863,97.9494089,92.0273065
101.9480750,-0.0033410,117.5633178,84.3144613,75.2727396
101.9820780,0.0151167,113.9930517,83.4153488,71.8911213
102.1800820,0.0279723,113.0544669,82.5755478,70.5864197
102.2240770,0.0287267,114.2114985,83.7708792,71.8245724
102.2620770,0.0140168,115.8361064,85.6203854,73.7314704
102.3061490,-0.0159153,117.2638293,87.4046714,75.5007838
102.4810760,-0.0494933,118.9515444,88.8877112,76.8524627
102.5220820,-0.0715511,120.6370477,90.4270403,78.2927649
102.5550750,-0.0767967,122.2743641,91.8222977,79.6771935
102.5920760,-0.0692761,123.7398333,92.9367966,80.8556789
102.6280750,-0.0553145,124.5376941,93.3454092,81.3191646
102.7920770,-0.0396031,125.5204034,94.0117287,81.9714377
102.8270780,-0.0245889,126.5320978,94.6543428,82.6381035
102.8620750,-0.0110826,127.7074462,95.3848546,83.3595439
102.9010770,0.0007370,128.3037484,95.5851161,83.4633400
103.0620770,0.0106816,128.5593724,95.4617854,83.3515406
103.0970760,0.0187784,128.6770704,95.1623192,83.1078870
103.1320760,0.0254056,129.0474649,95.1653605,83.1572306
103.1730810,0.0309292,129.3115720,95.1220245,83.1628038
103.3420780,0.0355542,129.3336919,94.9034455,82.9763278
103.3803640,0.0393624,129.3582651,94.6914017,82.7740466
103.4233670,0.0422076,129.3614595,94.4816994,82.5713648
103.4583650,0.0438333,129.4077194,94.3573331,82.5144638
103.6153640,0.0441958,129.5821571,94.2906899,82.5092691
103.6481200,0.0434930,129.6658532,94.2245899,82.4604217
103.6921090,0.0419660,129.3935454,93.8246297,82.0656418
103.7261120,0.0397298,129.4182615,93.5054810,81.5667544
103.8951140,0.0366819,129.3102825,93.2486246,81.1960062
103.9341120,0.0327165,129.1284645,93.0453659,81.0904752
103.9631100,0.0280216,128.8893122,92.9105302,81.0154550
103.9981100,0.0230062,129.0599818,93.0788886,81.2333691
104.1801170,0.0181858,129.2220014,93.1970861,81.4179684
104.2151470,0.0140947,129.3433889,93.3212543,81.5582831
104.2521170,0.0109826,129.4742285,93.3700559,81.6900530
104.3051120,0.0086641,129.5195760,93.5036697,81.8281841
104.3421140,0.0067196,129.6620667,93.6244187,81.9484240
104.5141140,0.0047502,129.6588890,93.6231328,81.9379714
104.5541150,0.0025375,129.5470872,93.4880249,81.7964341
104.5891110,0.0000168,129.2338849,93.1970733,81.4641584
104.6321130,-0.0028046,128.9244490,92.9363392,81.1930282
104.8156820,-0.0058002,128.6857152,92.7802908,80.9941429
104.8538950,-0.0088281,128.6251832,92.8080036,80.9599341
104.8898950,-0.0118175,128.9912520,93.1495412,81.2507365
104.9268950,-0.0146124,129.2389290,93.3510775,81.4561276
104.9648920,-0.0168947,129.3833297,93.4778939,81.6327254
105.1298940,-0.0183621,129.4247469,93.5585306,81.7101932
105.1658970,-0.0189040,129.5264152,93.6787485,81.8124764
105.2068930,-0.0186037,129.5742609,93.7288428,81.8461538
105.2428930,-0.0176950,129.4292147,93.5631341,81.6891026
105.2788910,-0.0164912,129.1763282,93.3046716,81.4546733
105.4489160,-0.0152746,129.0947368,93.2479289,81.3671350
105.4859490,-0.0141549,129.0129505,93.1499241,81.2961316
105.5289180,-0.0130500,128.9773347,93.1000126,81.2344799
105.5649170,-0.0118944,129.0928792,93.1886566,81.2881726
105.7203880,-0.0108317,129.3833424,93.4568891,81.4462584
105.7573900,-0.0102213,129.8391936,93.9493512,81.7202646
105.7943900,-0.0105707,129.9942496,94.2069152,81.7094548
105.8273870,-0.0125147,130.0014367,94.4161577,81.4844789
106.0063890,-0.0162875,129.9787767,94.2750835,81.3365267
106.0433920,-0.0211232,129.6187327,93.9594307,80.9535239
106.0783880,-0.0256611,129.4459180,93.8108730,80.8349973
106.1113870,-0.0285994,129.6568876,93.9823007,80.9869163
106.2753890,-0.0289428,129.9471778,94.1919781,81.1731012
106.3148250,-0.0264076,130.1955789,94.3663892,81.3555839
106.3538260,-0.0217661,130.8914053,94.9997710,81.9228163
106.3918250,-0.0163090,131.4427705,95.4938200,82.3805648
106.5718340,-0.0111250,132.2997497,96.3957485,83.2252003
106.6108260,-0.0068902,133.1963401,97.3544250,84.1091368
106.6448300,-0.0038876,133.8659249,98.1239005,84.8332394
106.6790230,-0.0020206,133.7373522,98.1179104,84.8761062
106.7150240,-0.0008796,133.4375258,98.0044772,84.8073877
106.8780240,0.0000067,132.7901987,97.5016227,84.3661178
106.9130220,0.0010290,132.1634989,97.0908374,84.0349720
106.9500230,0.0024128,131.2590822,96.4481921,83.4495565
106.9840220,0.0040997,130.6490761,96.0037098,83.0478268
107.1630280,0.0058559,130.5978927,95.9981067,83.0811083
107.2010600,0.0075218,130.4351712,95.8314710,82.9681293
107.2360310,0.0090807,130.3194904,95.7056941,82.8921949
107.2750240,0.0105740,130.2026683,95.6226053,82.8213009
107.3100230,0.0120571,130.2240466,95.5986007,82.8448226
107.4780260,0.0135856,130.2765684,95.6127450,82.9151402
107.5160250,0.0151432,130.4851157,95.7456393,83.0921061
107.5480230,0.0166327,130.7619365,95.9200513,83.3168121
107.5840220,0.0179801,130.8859918,95.9831410,83.4096730
107.7497510,0.0191662,131.1270421,96.1220567,83.5956612
107.7887580,0.0201638,131.2822276,96.1786355,83.6950413
107.8217590,0.0208490,131.3177806,96.2201231,83.7110096
107.8601940,0.0208399,131.1885393,96.2331161,83.5605102
107.8971930,0.0196783,131.1509847,96.2061843,83.5274544
108.0532150,0.0173008,131.0581942,96.1372940,83.4461607
108.0882000,0.0140184,131.1486329,96.2076756,83.5190982
108.1221970,0.0103289,131.4052179,96.3849230,83.7214789
108.1601940,0.0069869,131.6389295,96.5312018,83.9064554
108.3151930,0.0047574,131.8031244,96.6154037,84.0424585
108.3511920,0.0039610,132.0277381,96.7143815,84.2437058
108.3911970,0.0044518,132.2253834,96.8333436,84.4054308
108.4291970,0.0057936,132.5961146,97.1031382,84.7196319
108.5971920,0.0074532,132.8911010,97.2800746,84.9373155
108.6311950,0.0090417,133.2700195,97.5013399,85.2232543
108.6751950,0.0103145,133.5479081,97.6952991,85.4315995
108.7139830,0.0111022,133.8599056,97.8808228,85.6654807
108.8810220,0.0113794,133.8848582,97.8944253,85.7035047
108.9189840,0.0111573,134.1376343,98.0944912,85.8623268
108.9549860,0.0103329,134.2456876,98.2032491,85.9460516
108.9959830,0.0088612,134.3945017,98.2863984,86.0656831
109.1739870,0.0068982,134.4520001,98.3421858,86.1206692
109.2109840,0.0046198,134.5219774,98.3910012,86.1236083
109.2509880,0.0022013,134.5726299,98.3978495,86.1399681
109.2899830,-0.0000526,134.7104932,98.4552342,86.2087755
109.3259820,-0.0018915,134.7756308,98.4773542,86.2313887
109.4969860,-0.0033238,134.6718088,98.3814919,86.1201182
109.5319840,-0.0045192,134.4883188,98.2681187,85.9453030
109.5679220,-0.0056730,134.3736237,98.1826725,85.8301061
109.6068980,-0.0069715,134.1954543,98.0550261,85.6566957
109.6428960,-0.0085499,134.0605556,97.9540146,85.5058856
109.8055710,-0.0104014,133.9011444,97.8282688,85.3461961
109.8495720,-0.0123454,133.6843548,97.6682984,85.1194116
109.8845710,-0.0142139,133.5160795,97.5729544,84.8862541
109.9345700,-0.0159347,133.4665733,97.5296743,84.8406224
110.1155720,-0.0173732,133.3553863,97.4606977,84.7283118
110.1495700,-0.0183691,133.3219930,97.4464328,84.7102029
110.1885730,-0.0188109,133.2315862,97.3829305,84.6410755
110.2225710,-0.0185562,133.1976812,97.3650115,84.6192564
110.2595740,-0.0175146,133.1404458,97.3384628,84.6078981
110.4185720,-0.0158475,133.1033523,97.3508926,84.5762599
110.4605730,-0.0144291,132.3621549,97.0056352,83.5474243
110.4975740,-0.0145136,132.4901009,97.0817991,83.6410615
110.5325720,-0.0162629,132.5348056,97.1277110,83.7223435
110.5715750,-0.0187154,132.6679178,97.2022933,83.8236585
110.7488170,-0.0208218,132.8443651,97.3034173,83.9612795
110.7848200,-0.0213528,132.9152330,97.2942286,84.0041902
110.8258180,-0.0191371,132.9241867,97.2673657,84.0256256
110.8628200,-0.0142848,132.9371917,97.2262367,84.0802405
111.0322010,-0.0080113,132.9024877,97.1474500,84.0643437
111.0712060,-0.0015591,132.8945483,97.1235029,84.1044731
111.1092020,0.0042430,132.9371714,97.1291878,84.1800619
111.1492030,0.0090480,132.9369605,97.1182461,84.2184029
111.1852000,0.0128140,133.0025937,97.1315440,84.2737732
111.3512030,0.0156247,133.0085357,97.0944926,84.2900026
111.3932010,0.0175873,132.8672606,96.9706604,84.1552270
111.4322070,0.0187609,132.7751457,96.8739760,84.0941173
111.4671990,0.0192053,132.6588182,96.7656224,84.0015794
111.5022010,0.0190272,132.6463187,96.7515698,84.0095088
111.6647840,0.0183533,132.6337314,96.7128671,84.0046200
111.6997860,0.0173786,132.7899923,96.7464724,84.0537825
111.7325250,0.0163260,132.4232926,96.3666718,83.6662441
111.7675240,0.0152553,131.3508066,95.4644594,82.7972109
111.9305240,0.0139701,130.3281296,94.7917018,82.0784740
111.9715250,0.0121304,129.6429943,94.2576898,81.5228510
112.0075260,0.0094525,129.1254740,93.9481078,81.1195201
112.0445220,0.0058091,128.7922079,93.7240916,80.7853725
112.2125290,0.0012561,128.2368718,93.4135303,80.3423751
112.2475240,-0.0038450,128.0079213,93.3464818,80.2692561
112.2865250,-0.0088323,127.9282026,93.4855554,80.4011913
112.3215270,-0.0130395,127.9053603,93.6488461,80.6327673
112.4825220,-0.0160081,127.6698078,93.6005842,80.5821229
112.5195230,-0.0175390,127.4992092,93.5939792,80.5911811
112.5605240,-0.0176923,127.1842821,93.4054400,80.4360357
112.5975250,-0.0166473,126.8750825,93.0807032,80.2478463
112.7752800,-0.0145490,126.5780698,92.7547519,80.0078190
112.8142710,-0.0116196,126.6284221,92.8593079,80.1125726
112.8482730,-0.0082466,126.6397372,92.9585536,80.2117651
112.8852720,-0.0048601,126.6060151,93.0450688,80.3043857
113.0492720,-0.0019201,126.7441277,93.2961114,80.5617485
113.0842740,0.0001198,126.8259746,93.4438015,80.7180589
113.1192710,0.0010700,126.9163234,93.6613793,80.9195472
113.1552740,0.0011814,126.8182455,93.5404228,80.8242313
113.3093210,0.0009625,126.7638655,93.5154889,80.7884577
113.3412920,0.0008328,126.6814918,93.4376803,80.7065291
113.3750820,0.0010456,126.4978619,93.1416119,80.4782391
113.4040810,0.0018428,126.2876817,92.7881986,80.1867299
113.5286710,0.0033904,125.9089195,92.2595214,79.7109765
113.5566740,0.0055832,125.8391016,92.0601311,79.4880430
